TOPLVL/teste_toplvl.vcd
$date
  Wed May 24 18:28:24 2023
$end
$version
  GHDL v0
$end
$timescale
  1 fs
$end
$scope module standard $end
$upscope $end
$scope module std_logic_1164 $end
$upscope $end
$scope module numeric_std $end
$upscope $end
$scope module toplvl_tb $end
$var reg 1 ! finished $end
$var reg 1 " clk $end
$var reg 1 # rst $end
$var reg 16 $ reg[15:0] $end
$var reg 16 % ula[15:0] $end
$var reg 16 & acumulador[15:0] $end
$var reg 18 ' instru[17:0] $end
$var reg 7 ( pc_out[6:0] $end
$scope module uut $end
$var reg 1 ) clk $end
$var reg 1 * rst $end
$var reg 7 + pc[6:0] $end
$var reg 18 , instruction[17:0] $end
$var reg 16 - reg[15:0] $end
$var reg 16 . acumulador_out[15:0] $end
$var reg 16 / ula[15:0] $end
$var reg 2 0 mux_operation_s[1:0] $end
$var reg 2 1 state_s[1:0] $end
$var reg 3 2 reg_s[2:0] $end
$var reg 1 3 wr_en_br_s $end
$var reg 1 4 wr_en_acumulador_s $end
$var reg 1 5 acumulador_en_s $end
$var reg 1 6 mux_br_ula_s $end
$var reg 1 7 carry_subtr_s $end
$var reg 1 8 carry_soma_s $end
$var reg 16 9 ula_result_s[15:0] $end
$var reg 16 : acumulador_s[15:0] $end
$var reg 16 ; immediate_s[15:0] $end
$scope module bancoreg_ula1 $end
$var reg 3 < reg[2:0] $end
$var reg 1 = clk $end
$var reg 1 > rst $end
$var reg 1 ? wr_en $end
$var reg 1 @ mux_sel $end
$var reg 1 A acumulador_en $end
$var reg 16 B mux_in_2[15:0] $end
$var reg 1 C carry_subtr $end
$var reg 1 D carry_soma $end
$var reg 16 E ula_result[15:0] $end
$var reg 2 F mux_operation[1:0] $end
$var reg 16 G acumulador[15:0] $end
$var reg 16 H read_data[15:0] $end
$var reg 16 I read_data_s[15:0] $end
$var reg 16 J mux_data_s[15:0] $end
$var reg 16 K ula_val1_s[15:0] $end
$scope module ula0 $end
$var reg 16 L val0[15:0] $end
$var reg 16 M val1[15:0] $end
$var reg 2 N mux_operation[1:0] $end
$var reg 1 O carry_subtr $end
$var reg 1 P carry_soma $end
$var reg 16 Q saida[15:0] $end
$var reg 16 R ope1[15:0] $end
$var reg 16 S ope2[15:0] $end
$var reg 16 T ope3[15:0] $end
$var reg 16 U ope4[15:0] $end
$scope module mux4x11 $end
$var reg 16 V ope1[15:0] $end
$var reg 16 W ope2[15:0] $end
$var reg 16 X ope3[15:0] $end
$var reg 16 Y ope4[15:0] $end
$var reg 2 Z sel[1:0] $end
$var reg 16 [ saida[15:0] $end
$upscope $end
$scope module operacoes1 $end
$var reg 16 \ val0[15:0] $end
$var reg 16 ] val1[15:0] $end
$var reg 1 ^ carry_subtr $end
$var reg 1 _ carry_soma $end
$var reg 16 ` soma[15:0] $end
$var reg 16 a subtracao[15:0] $end
$var reg 16 b maior_que[15:0] $end
$var reg 16 c multiplicacao[15:0] $end
$var reg 17 d soma_ext[16:0] $end
$var reg 32 e multip_ext[31:0] $end
$upscope $end
$upscope $end
$scope module bancoreg0 $end
$var reg 3 f reg[2:0] $end
$var reg 16 g dado[15:0] $end
$var reg 1 h wr_en $end
$var reg 1 i clk $end
$var reg 1 j rst $end
$var reg 16 k read_data[15:0] $end
$var reg 16 l r_data0[15:0] $end
$var reg 16 m r_data1[15:0] $end
$var reg 16 n r_data2[15:0] $end
$var reg 16 o r_data3[15:0] $end
$var reg 16 p r_data4[15:0] $end
$var reg 16 q r_data5[15:0] $end
$var reg 16 r r_data6[15:0] $end
$var reg 16 s r_data7[15:0] $end
$var reg 1 t wr_en0 $end
$var reg 1 u wr_en1 $end
$var reg 1 v wr_en2 $end
$var reg 1 w wr_en3 $end
$var reg 1 x wr_en4 $end
$var reg 1 y wr_en5 $end
$var reg 1 z wr_en6 $end
$var reg 1 { wr_en7 $end
$scope module registrador0 $end
$var reg 1 | clk $end
$var reg 1 } rst $end
$var reg 1 !" wr_en $end
$var reg 16 "" data_in[15:0] $end
$var reg 16 #" data_out[15:0] $end
$var reg 16 $" registro[15:0] $end
$upscope $end
$scope module registrador1 $end
$var reg 1 %" clk $end
$var reg 1 &" rst $end
$var reg 1 '" wr_en $end
$var reg 16 (" data_in[15:0] $end
$var reg 16 )" data_out[15:0] $end
$var reg 16 *" registro[15:0] $end
$upscope $end
$scope module registrador2 $end
$var reg 1 +" clk $end
$var reg 1 ," rst $end
$var reg 1 -" wr_en $end
$var reg 16 ." data_in[15:0] $end
$var reg 16 /" data_out[15:0] $end
$var reg 16 0" registro[15:0] $end
$upscope $end
$scope module registrador3 $end
$var reg 1 1" clk $end
$var reg 1 2" rst $end
$var reg 1 3" wr_en $end
$var reg 16 4" data_in[15:0] $end
$var reg 16 5" data_out[15:0] $end
$var reg 16 6" registro[15:0] $end
$upscope $end
$scope module registrador4 $end
$var reg 1 7" clk $end
$var reg 1 8" rst $end
$var reg 1 9" wr_en $end
$var reg 16 :" data_in[15:0] $end
$var reg 16 ;" data_out[15:0] $end
$var reg 16 <" registro[15:0] $end
$upscope $end
$scope module registrador5 $end
$var reg 1 =" clk $end
$var reg 1 >" rst $end
$var reg 1 ?" wr_en $end
$var reg 16 @" data_in[15:0] $end
$var reg 16 A" data_out[15:0] $end
$var reg 16 B" registro[15:0] $end
$upscope $end
$scope module registrador6 $end
$var reg 1 C" clk $end
$var reg 1 D" rst $end
$var reg 1 E" wr_en $end
$var reg 16 F" data_in[15:0] $end
$var reg 16 G" data_out[15:0] $end
$var reg 16 H" registro[15:0] $end
$upscope $end
$scope module registrador7 $end
$var reg 1 I" clk $end
$var reg 1 J" rst $end
$var reg 1 K" wr_en $end
$var reg 16 L" data_in[15:0] $end
$var reg 16 M" data_out[15:0] $end
$var reg 16 N" registro[15:0] $end
$upscope $end
$upscope $end
$scope module mux0 $end
$var reg 16 O" sinal1[15:0] $end
$var reg 16 P" sinal2[15:0] $end
$var reg 1 Q" sel $end
$var reg 16 R" saida[15:0] $end
$upscope $end
$upscope $end
$scope module uc_pc_rom1 $end
$var reg 1 S" clk $end
$var reg 1 T" rst $end
$var reg 1 U" carry_subtr $end
$var reg 1 V" carry_soma $end
$var reg 1 W" wr_en_br $end
$var reg 1 X" wr_en_acumulador $end
$var reg 1 Y" acumulador_en $end
$var reg 1 Z" mux_br_ula_sel $end
$var reg 16 [" immediate[15:0] $end
$var reg 7 \" pc[6:0] $end
$var reg 2 ]" state[1:0] $end
$var reg 18 ^" instruction_out[17:0] $end
$var reg 2 _" mux_operation[1:0] $end
$var reg 3 `" reg[2:0] $end
$var reg 18 a" instruction_s[17:0] $end
$var reg 18 b" instruction_rom_s[17:0] $end
$var reg 1 c" wr_en_br_s $end
$var reg 1 d" wr_en_pcrom_s $end
$var reg 1 e" wr_en_acumulador_s $end
$var reg 7 f" pc_in[6:0] $end
$var reg 7 g" pc_out[6:0] $end
$var reg 1 h" wr_en_reg_instr_s $end
$var reg 1 i" execute $end
$var reg 2 j" state_s[1:0] $end
$var reg 1 k" jump_s $end
$scope module controle0 $end
$var reg 1 l" clk $end
$var reg 1 m" rst $end
$var reg 18 n" instruction[17:0] $end
$var reg 2 o" state[1:0] $end
$var reg 1 p" jump_en $end
$var reg 1 q" mux_br_ula_sel $end
$var reg 1 r" acumulador_en $end
$var reg 1 s" fetch $end
$var reg 1 t" execute $end
$var reg 1 u" decode $end
$var reg 1 v" wr_en_br $end
$var reg 2 w" mux_operation[1:0] $end
$var reg 1 x" wr_en_acumulador $end
$var reg 1 y" execute_s $end
$upscope $end
$scope module pcrom0 $end
$var reg 1 z" clk $end
$var reg 1 {" wr_en $end
$var reg 1 |" rst $end
$var reg 7 }" data_in_pc[6:0] $end
$var reg 18 !# data_out_rom[17:0] $end
$var reg 7 "# data_out_pc[6:0] $end
$var reg 7 ## registro[6:0] $end
$scope module pc0 $end
$var reg 1 $# clk $end
$var reg 1 %# wr_en $end
$var reg 1 &# rst $end
$var reg 7 '# data_in[6:0] $end
$var reg 7 (# data_out[6:0] $end
$var reg 7 )# registro[6:0] $end
$upscope $end
$scope module rom0 $end
$var reg 1 *# clk $end
$var reg 7 +# endereco[6:0] $end
$var reg 18 ,# dado[17:0] $end
$upscope $end
$upscope $end
$scope module reg_instr1 $end
$var reg 1 -# clk $end
$var reg 1 .# wr_en $end
$var reg 1 /# rst $end
$var reg 18 0# data_in[17:0] $end
$var reg 18 1# data_out[17:0] $end
$var reg 18 2# registro[17:0] $end
$upscope $end
$scope module maq_est1 $end
$var reg 1 3# clk $end
$var reg 1 4# rst $end
$var reg 2 5# state[1:0] $end
$var reg 2 6# estado_s[1:0] $end
$upscope $end
$upscope $end
$scope module acumulador1 $end
$var reg 1 7# clk $end
$var reg 1 8# wr_en $end
$var reg 1 9# rst $end
$var reg 16 :# data_in[15:0] $end
$var reg 16 ;# data_out[15:0] $end
$var reg 16 <# registro[15:0] $end
$upscope $end
$upscope $end
$upscope $end
$enddefinitions $end
#0
0!
0"
1#
b0000000000000000 $
b0000000000000000 %
b0000000000000000 &
b000000000000000000 '
b0000000 (
0)
1*
b0000000 +
b000000000000000000 ,
b0000000000000000 -
b0000000000000000 .
b0000000000000000 /
b00 0
b00 1
b000 2
03
04
15
06
07
08
b0000000000000000 9
b0000000000000000 :
b0000000000000000 ;
b000 <
0=
1>
0?
0@
1A
b0000000000000000 B
0C
0D
b0000000000000000 E
b00 F
b0000000000000000 G
b0000000000000000 H
b0000000000000000 I
b0000000000000000 J
b0000000000000000 K
b0000000000000000 L
b0000000000000000 M
b00 N
0O
0P
b0000000000000000 Q
b0000000000000000 R
b0000000000000000 S
b0000000000000000 T
b0000000000000000 U
b0000000000000000 V
b0000000000000000 W
b0000000000000000 X
b0000000000000000 Y
b00 Z
b0000000000000000 [
b0000000000000000 \
b0000000000000000 ]
0^
0_
b0000000000000000 `
b0000000000000000 a
b0000000000000000 b
b0000000000000000 c
b00000000000000000 d
b00000000000000000000000000000000 e
b000 f
b0000000000000000 g
0h
0i
1j
b0000000000000000 k
b0000000000000000 l
b0000000000000000 m
b0000000000000000 n
b0000000000000000 o
b0000000000000000 p
b0000000000000000 q
b0000000000000000 r
b0000000000000000 s
0t
0u
0v
0w
0x
0y
0z
0{
0|
1}
0!"
b0000000000000000 ""
b0000000000000000 #"
b0000000000000000 $"
0%"
1&"
0'"
b0000000000000000 ("
b0000000000000000 )"
b0000000000000000 *"
0+"
1,"
0-"
b0000000000000000 ."
b0000000000000000 /"
b0000000000000000 0"
01"
12"
03"
b0000000000000000 4"
b0000000000000000 5"
b0000000000000000 6"
07"
18"
09"
b0000000000000000 :"
b0000000000000000 ;"
b0000000000000000 <"
0="
1>"
0?"
b0000000000000000 @"
b0000000000000000 A"
b0000000000000000 B"
0C"
1D"
0E"
b0000000000000000 F"
b0000000000000000 G"
b0000000000000000 H"
0I"
1J"
0K"
b0000000000000000 L"
b0000000000000000 M"
b0000000000000000 N"
b0000000000000000 O"
b0000000000000000 P"
0Q"
b0000000000000000 R"
0S"
1T"
0U"
0V"
0W"
0X"
1Y"
0Z"
b0000000000000000 ["
b0000000 \"
b00 ]"
b000000000000000000 ^"
b00 _"
b000 `"
b000000000000000000 a"
bUUUUUUUUUUUUUUUUUU b"
0c"
1d"
0e"
b0000001 f"
b0000000 g"
0h"
0i"
b00 j"
0k"
0l"
1m"
b000000000000000000 n"
b00 o"
0p"
0q"
1r"
1s"
0t"
0u"
0v"
b00 w"
0x"
0y"
0z"
1{"
1|"
b0000001 }"
bUUUUUUUUUUUUUUUUUU !#
b0000000 "#
b0000000 ##
0$#
1%#
1&#
b0000001 '#
b0000000 (#
b0000000 )#
0*#
b0000000 +#
bUUUUUUUUUUUUUUUUUU ,#
0-#
0.#
1/#
bUUUUUUUUUUUUUUUUUU 0#
b000000000000000000 1#
b000000000000000000 2#
03#
14#
b00 5#
b00 6#
07#
08#
19#
b0000000000000000 :#
b0000000000000000 ;#
b0000000000000000 <#
#50000000
1"
1)
1=
1i
1|
1%"
1+"
11"
17"
1="
1C"
1I"
1S"
b000000000000000000 b"
1l"
1z"
b000000000000000000 !#
1$#
1*#
b000000000000000000 ,#
1-#
b000000000000000000 0#
13#
17#
#100000000
0"
X#
0)
X*
0=
X>
0i
Xj
0|
X}
0%"
X&"
0+"
X,"
01"
X2"
07"
X8"
0="
X>"
0C"
XD"
0I"
XJ"
0S"
XT"
0l"
Xm"
0z"
X|"
0$#
X&#
0*#
0-#
X/#
03#
X4#
07#
X9#
#150000000
1"
b0000001 (
1)
b0000001 +
b01 1
1=
1i
1|
1%"
1+"
11"
17"
1="
1C"
1I"
1S"
b0000001 \"
b01 ]"
0d"
b0000010 f"
b0000001 g"
1h"
b01 j"
1l"
b01 o"
0s"
1u"
1z"
0{"
b0000010 }"
b0000001 "#
b0000001 ##
1$#
0%#
b0000010 '#
b0000001 (#
b0000001 )#
1*#
b0000001 +#
1-#
1.#
13#
b01 5#
b01 6#
17#
#200000000
0"
0#
0)
0*
0=
0>
0i
0j
0|
0}
0%"
0&"
0+"
0,"
01"
02"
07"
08"
0="
0>"
0C"
0D"
0I"
0J"
0S"
0T"
0l"
0m"
0z"
0|"
0$#
0&#
0*#
0-#
0/#
03#
04#
07#
09#
#250000000
1"
1)
b10 1
1=
1i
1|
1%"
1+"
11"
17"
1="
1C"
1I"
1S"
b10 ]"
0h"
1i"
b10 j"
1l"
b10 o"
1t"
0u"
1y"
1z"
1$#
1*#
1-#
0.#
13#
b10 5#
b10 6#
17#
#300000000
0"
0)
0=
0i
0|
0%"
0+"
01"
07"
0="
0C"
0I"
0S"
0l"
0z"
0$#
0*#
0-#
03#
07#
#350000000
1"
1)
b00 1
1=
1i
1|
1%"
1+"
11"
17"
1="
1C"
1I"
1S"
b00 ]"
1d"
0i"
b00 j"
1l"
b00 o"
1s"
0t"
0y"
1z"
1{"
1$#
1%#
1*#
1-#
13#
b00 5#
b00 6#
17#
#400000000
0"
0)
0=
0i
0|
0%"
0+"
01"
07"
0="
0C"
0I"
0S"
0l"
0z"
0$#
0*#
0-#
03#
07#
#450000000
1"
b0000010 (
1)
b0000010 +
b01 1
1=
1i
1|
1%"
1+"
11"
17"
1="
1C"
1I"
1S"
b0000010 \"
b01 ]"
0d"
b0000011 f"
b0000010 g"
1h"
b01 j"
1l"
b01 o"
0s"
1u"
1z"
0{"
b0000011 }"
b0000010 "#
b0000010 ##
1$#
0%#
b0000011 '#
b0000010 (#
b0000010 )#
1*#
b0000010 +#
1-#
1.#
13#
b01 5#
b01 6#
17#
#500000000
0"
0)
0=
0i
0|
0%"
0+"
01"
07"
0="
0C"
0I"
0S"
0l"
0z"
0$#
0*#
0-#
03#
07#
#550000000
1"
1)
b10 1
1=
1i
1|
1%"
1+"
11"
17"
1="
1C"
1I"
1S"
b10 ]"
0h"
1i"
b10 j"
1l"
b10 o"
1t"
0u"
1y"
1z"
1$#
1*#
1-#
0.#
13#
b10 5#
b10 6#
17#
#600000000
0"
0)
0=
0i
0|
0%"
0+"
01"
07"
0="
0C"
0I"
0S"
0l"
0z"
0$#
0*#
0-#
03#
07#
#650000000
1"
1)
b00 1
1=
1i
1|
1%"
1+"
11"
17"
1="
1C"
1I"
1S"
b00 ]"
1d"
0i"
b00 j"
1l"
b00 o"
1s"
0t"
0y"
1z"
1{"
1$#
1%#
1*#
1-#
13#
b00 5#
b00 6#
17#
#700000000
0"
0)
0=
0i
0|
0%"
0+"
01"
07"
0="
0C"
0I"
0S"
0l"
0z"
0$#
0*#
0-#
03#
07#
#750000000
1"
b0000011 (
1)
b0000011 +
b01 1
1=
1i
1|
1%"
1+"
11"
17"
1="
1C"
1I"
1S"
b0000011 \"
b01 ]"
0d"
b0000100 f"
b0000011 g"
1h"
b01 j"
1l"
b01 o"
0s"
1u"
1z"
0{"
b0000100 }"
b0000011 "#
b0000011 ##
1$#
0%#
b0000100 '#
b0000011 (#
b0000011 )#
1*#
b0000011 +#
1-#
1.#
13#
b01 5#
b01 6#
17#
#800000000
0"
0)
0=
0i
0|
0%"
0+"
01"
07"
0="
0C"
0I"
0S"
0l"
0z"
0$#
0*#
0-#
03#
07#
#850000000
1"
1)
b10 1
1=
1i
1|
1%"
1+"
11"
17"
1="
1C"
1I"
1S"
b10 ]"
0h"
1i"
b10 j"
1l"
b10 o"
1t"
0u"
1y"
1z"
1$#
1*#
1-#
0.#
13#
b10 5#
b10 6#
17#
#900000000
0"
0)
0=
0i
0|
0%"
0+"
01"
07"
0="
0C"
0I"
0S"
0l"
0z"
0$#
0*#
0-#
03#
07#
#950000000
1"
1)
b00 1
1=
1i
1|
1%"
1+"
11"
17"
1="
1C"
1I"
1S"
b00 ]"
1d"
0i"
b00 j"
1l"
b00 o"
1s"
0t"
0y"
1z"
1{"
1$#
1%#
1*#
1-#
13#
b00 5#
b00 6#
17#
#1000000000
0"
0)
0=
0i
0|
0%"
0+"
01"
07"
0="
0C"
0I"
0S"
0l"
0z"
0$#
0*#
0-#
03#
07#
#1050000000
1"
b0000100 (
1)
b0000100 +
b01 1
1=
1i
1|
1%"
1+"
11"
17"
1="
1C"
1I"
1S"
b0000100 \"
b01 ]"
0d"
b0000101 f"
b0000100 g"
1h"
b01 j"
1l"
b01 o"
0s"
1u"
1z"
0{"
b0000101 }"
b0000100 "#
b0000100 ##
1$#
0%#
b0000101 '#
b0000100 (#
b0000100 )#
1*#
b0000100 +#
1-#
1.#
13#
b01 5#
b01 6#
17#
#1100000000
0"
0)
0=
0i
0|
0%"
0+"
01"
07"
0="
0C"
0I"
0S"
0l"
0z"
0$#
0*#
0-#
03#
07#
#1150000000
1"
1)
b10 1
1=
1i
1|
1%"
1+"
11"
17"
1="
1C"
1I"
1S"
b10 ]"
b110100000000000100 b"
0h"
1i"
b10 j"
1l"
b10 o"
1t"
0u"
1y"
1z"
b110100000000000100 !#
1$#
1*#
b110100000000000100 ,#
1-#
0.#
b110100000000000100 0#
13#
b10 5#
b10 6#
17#
#1200000000
0"
0)
0=
0i
0|
0%"
0+"
01"
07"
0="
0C"
0I"
0S"
0l"
0z"
0$#
0*#
0-#
03#
07#
#1250000000
1"
1)
b00 1
1=
1i
1|
1%"
1+"
11"
17"
1="
1C"
1I"
1S"
b00 ]"
1d"
0i"
b00 j"
1l"
b00 o"
1s"
0t"
0y"
1z"
1{"
1$#
1%#
1*#
1-#
13#
b00 5#
b00 6#
17#
#1300000000
0"
0)
0=
0i
0|
0%"
0+"
01"
07"
0="
0C"
0I"
0S"
0l"
0z"
0$#
0*#
0-#
03#
07#
#1350000000
1"
b0000101 (
1)
b0000101 +
b01 1
1=
1i
1|
1%"
1+"
11"
17"
1="
1C"
1I"
1S"
b0000101 \"
b01 ]"
0d"
b0000110 f"
b0000101 g"
1h"
b01 j"
1l"
b01 o"
0s"
1u"
1z"
0{"
b0000110 }"
b0000101 "#
b0000101 ##
1$#
0%#
b0000110 '#
b0000101 (#
b0000101 )#
1*#
b0000101 +#
1-#
1.#
13#
b01 5#
b01 6#
17#
#1400000000
0"
0)
0=
0i
0|
0%"
0+"
01"
07"
0="
0C"
0I"
0S"
0l"
0z"
0$#
0*#
0-#
03#
07#
#1450000000
1"
b110100000000000100 '
1)
b110100000000000100 ,
b10 1
b100 2
14
X5
b0000000000000100 ;
b100 <
1=
XA
b0000000000000100 B
b100 f
1i
1|
1%"
1+"
11"
17"
1="
1C"
1I"
b0000000000000100 P"
1S"
1X"
XY"
b0000000000000100 ["
b10 ]"
b110100000000000100 ^"
b100 `"
b110100000000000100 a"
b000100000000000011 b"
1e"
0h"
1i"
b10 j"
1l"
b110100000000000100 n"
b10 o"
Xr"
1t"
0u"
1x"
1y"
1z"
b000100000000000011 !#
1$#
1*#
b000100000000000011 ,#
1-#
0.#
b000100000000000011 0#
b110100000000000100 1#
b110100000000000100 2#
13#
b10 5#
b10 6#
17#
18#
#1500000000
0"
0)
0=
0i
0|
0%"
0+"
01"
07"
0="
0C"
0I"
0S"
0l"
0z"
0$#
0*#
0-#
03#
07#
#1550000000
1"
1)
b00 1
04
1=
1i
1|
1%"
1+"
11"
17"
1="
1C"
1I"
1S"
0X"
b00 ]"
1d"
0e"
0i"
b00 j"
1l"
b00 o"
1s"
0t"
0x"
0y"
1z"
1{"
1$#
1%#
1*#
1-#
13#
b00 5#
b00 6#
17#
08#
#1600000000
0"
0)
0=
0i
0|
0%"
0+"
01"
07"
0="
0C"
0I"
0S"
0l"
0z"
0$#
0*#
0-#
03#
07#
#1650000000
1"
b0000110 (
1)
b0000110 +
b01 1
1=
1i
1|
1%"
1+"
11"
17"
1="
1C"
1I"
1S"
b0000110 \"
b01 ]"
0d"
b0000111 f"
b0000110 g"
1h"
b01 j"
1l"
b01 o"
0s"
1u"
1z"
0{"
b0000111 }"
b0000110 "#
b0000110 ##
1$#
0%#
b0000111 '#
b0000110 (#
b0000110 )#
1*#
b0000110 +#
1-#
1.#
13#
b01 5#
b01 6#
17#
#1700000000
0"
0)
0=
0i
0|
0%"
0+"
01"
07"
0="
0C"
0I"
0S"
0l"
0z"
0$#
0*#
0-#
03#
07#
#1750000000
1"
b000100000000000011 '
1)
b000100000000000011 ,
b10 1
b011 2
14
15
b0000000000000011 ;
b011 <
1=
1A
b0000000000000011 B
b011 f
1i
1|
1%"
1+"
11"
17"
1="
1C"
1I"
b0000000000000011 P"
1S"
1X"
1Y"
b0000000000000011 ["
b10 ]"
b000100000000000011 ^"
b011 `"
b000100000000000011 a"
b010100000000000100 b"
1e"
0h"
1i"
b10 j"
1l"
b000100000000000011 n"
b10 o"
1r"
1t"
0u"
1x"
1y"
1z"
b010100000000000100 !#
1$#
1*#
b010100000000000100 ,#
1-#
0.#
b010100000000000100 0#
b000100000000000011 1#
b000100000000000011 2#
13#
b10 5#
b10 6#
17#
18#
#1800000000
0"
0)
0=
0i
0|
0%"
0+"
01"
07"
0="
0C"
0I"
0S"
0l"
0z"
0$#
0*#
0-#
03#
07#
#1850000000
1"
1)
b00 1
04
1=
1i
1|
1%"
1+"
11"
17"
1="
1C"
1I"
1S"
0X"
b00 ]"
1d"
0e"
0i"
b00 j"
1l"
b00 o"
1s"
0t"
0x"
0y"
1z"
1{"
1$#
1%#
1*#
1-#
13#
b00 5#
b00 6#
17#
08#
#1900000000
0"
0)
0=
0i
0|
0%"
0+"
01"
07"
0="
0C"
0I"
0S"
0l"
0z"
0$#
0*#
0-#
03#
07#
#1950000000
1"
b0000111 (
1)
b0000111 +
b01 1
1=
1i
1|
1%"
1+"
11"
17"
1="
1C"
1I"
1S"
b0000111 \"
b01 ]"
0d"
b0001000 f"
b0000111 g"
1h"
b01 j"
1l"
b01 o"
0s"
1u"
1z"
0{"
b0001000 }"
b0000111 "#
b0000111 ##
1$#
0%#
b0001000 '#
b0000111 (#
b0000111 )#
1*#
b0000111 +#
1-#
1.#
13#
b01 5#
b01 6#
17#
#2000000000
0"
0)
0=
0i
0|
0%"
0+"
01"
07"
0="
0C"
0I"
0S"
0l"
0z"
0$#
0*#
0-#
03#
07#
#2050000000
1"
b010100000000000100 '
1)
b010100000000000100 ,
b10 1
b100 2
13
b0000000000000100 ;
b100 <
1=
1?
b0000000000000100 B
b100 f
1h
1i
1x
1|
1%"
1+"
11"
17"
19"
1="
1C"
1I"
b0000000000000100 P"
1S"
1W"
1Y"
b0000000000000100 ["
b10 ]"
b010100000000000100 ^"
b100 `"
b010100000000000100 a"
b110100000000000011 b"
1c"
0h"
1i"
b10 j"
1l"
b010100000000000100 n"
b10 o"
1r"
1t"
0u"
1v"
1y"
1z"
b110100000000000011 !#
1$#
1*#
b110100000000000011 ,#
1-#
0.#
b110100000000000011 0#
b010100000000000100 1#
b010100000000000100 2#
13#
b10 5#
b10 6#
17#
#2100000000
0"
0)
0=
0i
0|
0%"
0+"
01"
07"
0="
0C"
0I"
0S"
0l"
0z"
0$#
0*#
0-#
03#
07#
#2150000000
1"
1)
b00 1
1=
1i
1|
1%"
1+"
11"
17"
1="
1C"
1I"
1S"
b00 ]"
1d"
0i"
b00 j"
1l"
b00 o"
1s"
0t"
0y"
1z"
1{"
1$#
1%#
1*#
1-#
13#
b00 5#
b00 6#
17#
#2200000000
0"
0)
0=
0i
0|
0%"
0+"
01"
07"
0="
0C"
0I"
0S"
0l"
0z"
0$#
0*#
0-#
03#
07#
#2250000000
1"
b0001000 (
1)
b0001000 +
b01 1
1=
1i
1|
1%"
1+"
11"
17"
1="
1C"
1I"
1S"
b0001000 \"
b01 ]"
0d"
b0001001 f"
b0001000 g"
1h"
b01 j"
1l"
b01 o"
0s"
1u"
1z"
0{"
b0001001 }"
b0001000 "#
b0001000 ##
1$#
0%#
b0001001 '#
b0001000 (#
b0001000 )#
1*#
b0001000 +#
1-#
1.#
13#
b01 5#
b01 6#
17#
#2300000000
0"
0)
0=
0i
0|
0%"
0+"
01"
07"
0="
0C"
0I"
0S"
0l"
0z"
0$#
0*#
0-#
03#
07#
#2350000000
1"
b110100000000000011 '
1)
b110100000000000011 ,
b10 1
b011 2
03
14
X5
b0000000000000011 ;
b011 <
1=
0?
XA
b0000000000000011 B
b011 f
0h
1i
0w
0x
1|
1%"
1+"
11"
03"
17"
09"
1="
1C"
1I"
b0000000000000011 P"
1S"
0W"
1X"
XY"
b0000000000000011 ["
b10 ]"
b110100000000000011 ^"
b011 `"
b110100000000000011 a"
b100100000000000001 b"
0c"
1e"
0h"
1i"
b10 j"
1l"
b110100000000000011 n"
b10 o"
Xr"
1t"
0u"
0v"
1x"
1y"
1z"
b100100000000000001 !#
1$#
1*#
b100100000000000001 ,#
1-#
0.#
b100100000000000001 0#
b110100000000000011 1#
b110100000000000011 2#
13#
b10 5#
b10 6#
17#
18#
#2400000000
0"
0)
0=
0i
0|
0%"
0+"
01"
07"
0="
0C"
0I"
0S"
0l"
0z"
0$#
0*#
0-#
03#
07#
#2450000000
1"
1)
b00 1
04
1=
1i
1|
1%"
1+"
11"
17"
1="
1C"
1I"
1S"
0X"
b00 ]"
1d"
0e"
0i"
b00 j"
1l"
b00 o"
1s"
0t"
0x"
0y"
1z"
1{"
1$#
1%#
1*#
1-#
13#
b00 5#
b00 6#
17#
08#
#2500000000
0"
0)
0=
0i
0|
0%"
0+"
01"
07"
0="
0C"
0I"
0S"
0l"
0z"
0$#
0*#
0-#
03#
07#
#2550000000
1"
b0001001 (
1)
b0001001 +
b01 1
1=
1i
1|
1%"
1+"
11"
17"
1="
1C"
1I"
1S"
b0001001 \"
b01 ]"
0d"
b0001010 f"
b0001001 g"
1h"
b01 j"
1l"
b01 o"
0s"
1u"
1z"
0{"
b0001010 }"
b0001001 "#
b0001001 ##
1$#
0%#
b0001010 '#
b0001001 (#
b0001001 )#
1*#
b0001001 +#
1-#
1.#
13#
b01 5#
b01 6#
17#
#2600000000
0"
0)
0=
0i
0|
0%"
0+"
01"
07"
0="
0C"
0I"
0S"
0l"
0z"
0$#
0*#
0-#
03#
07#
#2650000000
1"
b0000000000000001 %
b100100000000000001 '
1)
b100100000000000001 ,
b0000000000000001 /
b10 1
b001 2
14
15
16
17
b0000000000000001 9
b0000000000000001 ;
b001 <
1=
1@
1A
b0000000000000001 B
1C
b0000000000000001 E
b0000000000000001 J
b0000000000000001 M
1O
b0000000000000001 Q
b0000000000000001 R
b1111111111111111 S
b0000000000000001 V
b1111111111111111 W
b0000000000000001 [
b0000000000000001 ]
1^
b0000000000000001 `
b1111111111111111 a
b00000000000000001 d
b001 f
1i
1|
1%"
1+"
11"
17"
1="
1C"
1I"
b0000000000000001 P"
1Q"
b0000000000000001 R"
1S"
1U"
1X"
1Y"
1Z"
b0000000000000001 ["
b10 ]"
b100100000000000001 ^"
b001 `"
b100100000000000001 a"
b010100000000000011 b"
1e"
0h"
1i"
b10 j"
1l"
b100100000000000001 n"
b10 o"
1q"
1r"
1t"
0u"
1x"
1y"
1z"
b010100000000000011 !#
1$#
1*#
b010100000000000011 ,#
1-#
0.#
b010100000000000011 0#
b100100000000000001 1#
b100100000000000001 2#
13#
b10 5#
b10 6#
17#
18#
b0000000000000001 :#
#2700000000
0"
0)
0=
0i
0|
0%"
0+"
01"
07"
0="
0C"
0I"
0S"
0l"
0z"
0$#
0*#
0-#
03#
07#
#2750000000
1"
b0000000000000010 %
b0000000000000001 &
1)
b0000000000000001 .
b0000000000000010 /
b00 1
04
07
b0000000000000010 9
b0000000000000001 :
1=
0C
b0000000000000010 E
b0000000000000001 G
b0000000000000001 K
b0000000000000001 L
0O
b0000000000000010 Q
b0000000000000010 R
b0000000000000000 S
b0000000000000001 U
b0000000000000010 V
b0000000000000000 W
b0000000000000001 Y
b0000000000000010 [
b0000000000000001 \
0^
b0000000000000010 `
b0000000000000000 a
b0000000000000001 c
b00000000000000010 d
b00000000000000000000000000000001 e
b0000000000000001 g
1i
1|
b0000000000000001 ""
1%"
b0000000000000001 ("
1+"
b0000000000000001 ."
11"
b0000000000000001 4"
17"
b0000000000000001 :"
1="
b0000000000000001 @"
1C"
b0000000000000001 F"
1I"
b0000000000000001 L"
1S"
0U"
0X"
b00 ]"
1d"
0e"
0i"
b00 j"
1l"
b00 o"
1s"
0t"
0x"
0y"
1z"
1{"
1$#
1%#
1*#
1-#
13#
b00 5#
b00 6#
17#
08#
b0000000000000010 :#
b0000000000000001 ;#
b0000000000000001 <#
#2800000000
0"
0)
0=
0i
0|
0%"
0+"
01"
07"
0="
0C"
0I"
0S"
0l"
0z"
0$#
0*#
0-#
03#
07#
