TOPLVL/teste_toplvl.vcd
$date
  Sun May 14 15:26:58 2023
$end
$version
  GHDL v0
$end
$timescale
  1 fs
$end
$scope module standard $end
$upscope $end
$scope module std_logic_1164 $end
$upscope $end
$scope module numeric_std $end
$upscope $end
$scope module toplvl_tb $end
$var reg 1 ! finished $end
$var reg 1 " clk $end
$var reg 1 # rst $end
$var reg 16 $ reg[15:0] $end
$var reg 16 % ula[15:0] $end
$var reg 16 & acumulador[15:0] $end
$var reg 18 ' instru[17:0] $end
$var reg 7 ( pc_out[6:0] $end
$scope module uut $end
$var reg 1 ) clk $end
$var reg 1 * rst $end
$var reg 7 + pc[6:0] $end
$var reg 18 , instruction[17:0] $end
$var reg 16 - reg[15:0] $end
$var reg 16 . acumulador_out[15:0] $end
$var reg 16 / ula[15:0] $end
$var reg 2 0 mux_operation_s[1:0] $end
$var reg 2 1 state_s[1:0] $end
$var reg 3 2 reg_s[2:0] $end
$var reg 1 3 wr_en_br_s $end
$var reg 1 4 wr_en_acumulador_s $end
$var reg 1 5 acumulador_en_s $end
$var reg 1 6 mux_br_ula_s[0:0] $end
$var reg 16 7 ula_result_s[15:0] $end
$var reg 16 8 acumulador_s[15:0] $end
$var reg 16 9 immediate_s[15:0] $end
$scope module bancoreg_ula1 $end
$var reg 3 : reg[2:0] $end
$var reg 1 ; clk $end
$var reg 1 < rst $end
$var reg 1 = wr_en $end
$var reg 1 > mux_sel[0:0] $end
$var reg 1 ? acumulador_en $end
$var reg 16 @ mux_in_2[15:0] $end
$var reg 16 A ula_result[15:0] $end
$var reg 2 B mux_operation[1:0] $end
$var reg 16 C acumulador[15:0] $end
$var reg 16 D read_data[15:0] $end
$var reg 16 E read_data_s[15:0] $end
$var reg 16 F mux_data_s[15:0] $end
$var reg 16 G ula_val1_s[15:0] $end
$scope module ula0 $end
$var reg 16 H val0[15:0] $end
$var reg 16 I val1[15:0] $end
$var reg 2 J mux_operation[1:0] $end
$var reg 16 K saida[15:0] $end
$var reg 16 L ope1[15:0] $end
$var reg 16 M ope2[15:0] $end
$var reg 16 N ope3[15:0] $end
$var reg 16 O ope4[15:0] $end
$scope module mux4x11 $end
$var reg 16 P ope1[15:0] $end
$var reg 16 Q ope2[15:0] $end
$var reg 16 R ope3[15:0] $end
$var reg 16 S ope4[15:0] $end
$var reg 2 T sel[1:0] $end
$var reg 16 U saida[15:0] $end
$upscope $end
$scope module operacoes1 $end
$var reg 16 V val0[15:0] $end
$var reg 16 W val1[15:0] $end
$var reg 16 X soma[15:0] $end
$var reg 16 Y subtracao[15:0] $end
$var reg 16 Z maior_que[15:0] $end
$var reg 16 [ multiplicacao[15:0] $end
$var reg 17 \ soma_ext[16:0] $end
$var reg 32 ] multip_ext[31:0] $end
$upscope $end
$upscope $end
$scope module bancoreg0 $end
$var reg 3 ^ reg[2:0] $end
$var reg 16 _ dado[15:0] $end
$var reg 1 ` wr_en $end
$var reg 1 a clk $end
$var reg 1 b rst $end
$var reg 16 c read_data[15:0] $end
$var reg 16 d r_data0[15:0] $end
$var reg 16 e r_data1[15:0] $end
$var reg 16 f r_data2[15:0] $end
$var reg 16 g r_data3[15:0] $end
$var reg 16 h r_data4[15:0] $end
$var reg 16 i r_data5[15:0] $end
$var reg 16 j r_data6[15:0] $end
$var reg 16 k r_data7[15:0] $end
$var reg 1 l wr_en0 $end
$var reg 1 m wr_en1 $end
$var reg 1 n wr_en2 $end
$var reg 1 o wr_en3 $end
$var reg 1 p wr_en4 $end
$var reg 1 q wr_en5 $end
$var reg 1 r wr_en6 $end
$var reg 1 s wr_en7 $end
$scope module registrador0 $end
$var reg 1 t clk $end
$var reg 1 u rst $end
$var reg 1 v wr_en $end
$var reg 16 w data_in[15:0] $end
$var reg 16 x data_out[15:0] $end
$var reg 16 y registro[15:0] $end
$upscope $end
$scope module registrador1 $end
$var reg 1 z clk $end
$var reg 1 { rst $end
$var reg 1 | wr_en $end
$var reg 16 } data_in[15:0] $end
$var reg 16 !" data_out[15:0] $end
$var reg 16 "" registro[15:0] $end
$upscope $end
$scope module registrador2 $end
$var reg 1 #" clk $end
$var reg 1 $" rst $end
$var reg 1 %" wr_en $end
$var reg 16 &" data_in[15:0] $end
$var reg 16 '" data_out[15:0] $end
$var reg 16 (" registro[15:0] $end
$upscope $end
$scope module registrador3 $end
$var reg 1 )" clk $end
$var reg 1 *" rst $end
$var reg 1 +" wr_en $end
$var reg 16 ," data_in[15:0] $end
$var reg 16 -" data_out[15:0] $end
$var reg 16 ." registro[15:0] $end
$upscope $end
$scope module registrador4 $end
$var reg 1 /" clk $end
$var reg 1 0" rst $end
$var reg 1 1" wr_en $end
$var reg 16 2" data_in[15:0] $end
$var reg 16 3" data_out[15:0] $end
$var reg 16 4" registro[15:0] $end
$upscope $end
$scope module registrador5 $end
$var reg 1 5" clk $end
$var reg 1 6" rst $end
$var reg 1 7" wr_en $end
$var reg 16 8" data_in[15:0] $end
$var reg 16 9" data_out[15:0] $end
$var reg 16 :" registro[15:0] $end
$upscope $end
$scope module registrador6 $end
$var reg 1 ;" clk $end
$var reg 1 <" rst $end
$var reg 1 =" wr_en $end
$var reg 16 >" data_in[15:0] $end
$var reg 16 ?" data_out[15:0] $end
$var reg 16 @" registro[15:0] $end
$upscope $end
$scope module registrador7 $end
$var reg 1 A" clk $end
$var reg 1 B" rst $end
$var reg 1 C" wr_en $end
$var reg 16 D" data_in[15:0] $end
$var reg 16 E" data_out[15:0] $end
$var reg 16 F" registro[15:0] $end
$upscope $end
$upscope $end
$scope module mux0 $end
$var reg 16 G" sinal1[15:0] $end
$var reg 16 H" sinal2[15:0] $end
$var reg 1 I" sel[0:0] $end
$var reg 16 J" saida[15:0] $end
$upscope $end
$upscope $end
$scope module uc_pc_rom1 $end
$var reg 1 K" clk $end
$var reg 1 L" rst $end
$var reg 1 M" wr_en_br $end
$var reg 1 N" wr_en_acumulador $end
$var reg 1 O" acumulador_en $end
$var reg 1 P" mux_br_ula_sel[0:0] $end
$var reg 16 Q" immediate[15:0] $end
$var reg 7 R" pc[6:0] $end
$var reg 2 S" state[1:0] $end
$var reg 18 T" instruction_out[17:0] $end
$var reg 2 U" mux_operation[1:0] $end
$var reg 3 V" reg[2:0] $end
$var reg 18 W" instruction_s[17:0] $end
$var reg 18 X" instruction_rom_s[17:0] $end
$var reg 1 Y" wr_en_br_s $end
$var reg 1 Z" wr_en_pcrom_s $end
$var reg 1 [" wr_en_acumulador_s $end
$var reg 7 \" pc_in[6:0] $end
$var reg 7 ]" pc_out[6:0] $end
$var reg 1 ^" wr_en_reg_instr_s $end
$var reg 1 _" execute $end
$var reg 2 `" state_s[1:0] $end
$var reg 1 a" jump_s $end
$scope module controle0 $end
$var reg 1 b" clk $end
$var reg 1 c" rst $end
$var reg 18 d" instruction[17:0] $end
$var reg 2 e" state[1:0] $end
$var reg 1 f" jump_en $end
$var reg 1 g" mux_br_ula_sel[0:0] $end
$var reg 1 h" acumulador_en $end
$var reg 1 i" fetch $end
$var reg 1 j" execute $end
$var reg 1 k" decode $end
$var reg 1 l" wr_en_br $end
$var reg 2 m" mux_operation[1:0] $end
$var reg 1 n" wr_en_acumulador $end
$var reg 1 o" execute_s $end
$upscope $end
$scope module pcrom0 $end
$var reg 1 p" clk $end
$var reg 1 q" wr_en $end
$var reg 1 r" rst $end
$var reg 7 s" data_in_pc[6:0] $end
$var reg 18 t" data_out_rom[17:0] $end
$var reg 7 u" data_out_pc[6:0] $end
$var reg 7 v" registro[6:0] $end
$scope module pc0 $end
$var reg 1 w" clk $end
$var reg 1 x" wr_en $end
$var reg 1 y" rst $end
$var reg 7 z" data_in[6:0] $end
$var reg 7 {" data_out[6:0] $end
$var reg 7 |" registro[6:0] $end
$upscope $end
$scope module rom0 $end
$var reg 1 }" clk $end
$var reg 7 !# endereco[6:0] $end
$var reg 18 "# dado[17:0] $end
$upscope $end
$upscope $end
$scope module reg_instr1 $end
$var reg 1 ## clk $end
$var reg 1 $# wr_en $end
$var reg 1 %# rst $end
$var reg 18 &# data_in[17:0] $end
$var reg 18 '# data_out[17:0] $end
$var reg 18 (# registro[17:0] $end
$upscope $end
$scope module maq_est1 $end
$var reg 1 )# clk $end
$var reg 1 *# rst $end
$var reg 2 +# state[1:0] $end
$var reg 2 ,# estado_s[1:0] $end
$upscope $end
$upscope $end
$scope module acumulador1 $end
$var reg 1 -# clk $end
$var reg 1 .# wr_en $end
$var reg 1 /# rst $end
$var reg 16 0# data_in[15:0] $end
$var reg 16 1# data_out[15:0] $end
$var reg 16 2# registro[15:0] $end
$upscope $end
$upscope $end
$upscope $end
$enddefinitions $end
#0
0!
0"
1#
b0000000000000000 $
bUUUUUUUUUUUUUUUU %
b0000000000000000 &
b000000000000000000 '
b0000000 (
0)
1*
b0000000 +
b000000000000000000 ,
b0000000000000000 -
b0000000000000000 .
bUUUUUUUUUUUUUUUU /
b00 0
b00 1
b000 2
03
04
15
b0 6
bXXXXXXXXXXXXXXXX 7
bUUUUUUUUUUUUUUUU 8
b0000000000000000 9
b000 :
0;
1<
0=
b0 >
1?
b0000000000000000 @
bXXXXXXXXXXXXXXXX A
b00 B
bUUUUUUUUUUUUUUUU C
b0000000000000000 D
b0000000000000000 E
b0000000000000000 F
bUUUUUUUUUUUUUUUU G
b0000000000000000 H
bUUUUUUUUUUUUUUUU I
b00 J
bXXXXXXXXXXXXXXXX K
bXXXXXXXXXXXXXXXX L
bXXXXXXXXXXXXXXXX M
b0000000000000000 N
b0000000000000000 O
bXXXXXXXXXXXXXXXX P
bXXXXXXXXXXXXXXXX Q
b0000000000000000 R
b0000000000000000 S
b00 T
bXXXXXXXXXXXXXXXX U
b0000000000000000 V
bUUUUUUUUUUUUUUUU W
bXXXXXXXXXXXXXXXX X
bXXXXXXXXXXXXXXXX Y
b0000000000000000 Z
b0000000000000000 [
bXXXXXXXXXXXXXXXXX \
b00000000000000000000000000000000 ]
b000 ^
bUUUUUUUUUUUUUUUU _
0`
0a
1b
b0000000000000000 c
b0000000000000000 d
b0000000000000000 e
b0000000000000000 f
b0000000000000000 g
b0000000000000000 h
b0000000000000000 i
b0000000000000000 j
b0000000000000000 k
0l
0m
0n
0o
0p
0q
0r
0s
0t
1u
0v
bUUUUUUUUUUUUUUUU w
b0000000000000000 x
b0000000000000000 y
0z
1{
0|
bUUUUUUUUUUUUUUUU }
b0000000000000000 !"
b0000000000000000 ""
0#"
1$"
0%"
bUUUUUUUUUUUUUUUU &"
b0000000000000000 '"
b0000000000000000 ("
0)"
1*"
0+"
bUUUUUUUUUUUUUUUU ,"
b0000000000000000 -"
b0000000000000000 ."
0/"
10"
01"
bUUUUUUUUUUUUUUUU 2"
b0000000000000000 3"
b0000000000000000 4"
05"
16"
07"
bUUUUUUUUUUUUUUUU 8"
b0000000000000000 9"
b0000000000000000 :"
0;"
1<"
0="
bUUUUUUUUUUUUUUUU >"
b0000000000000000 ?"
b0000000000000000 @"
0A"
1B"
0C"
bUUUUUUUUUUUUUUUU D"
b0000000000000000 E"
b0000000000000000 F"
b0000000000000000 G"
b0000000000000000 H"
b0 I"
b0000000000000000 J"
0K"
1L"
0M"
0N"
1O"
b0 P"
b0000000000000000 Q"
b0000000 R"
b00 S"
b000000000000000000 T"
b00 U"
b000 V"
b000000000000000000 W"
bUUUUUUUUUUUUUUUUUU X"
0Y"
1Z"
0["
b0000001 \"
b0000000 ]"
0^"
0_"
b00 `"
0a"
0b"
1c"
b000000000000000000 d"
b00 e"
0f"
b0 g"
1h"
1i"
0j"
0k"
0l"
b00 m"
0n"
0o"
0p"
1q"
1r"
b0000001 s"
bUUUUUUUUUUUUUUUUUU t"
b0000000 u"
b0000000 v"
0w"
1x"
1y"
b0000001 z"
b0000000 {"
b0000000 |"
0}"
b0000000 !#
bUUUUUUUUUUUUUUUUUU "#
0##
0$#
1%#
bUUUUUUUUUUUUUUUUUU &#
b000000000000000000 '#
b000000000000000000 (#
0)#
1*#
b00 +#
b00 ,#
0-#
0.#
1/#
bXXXXXXXXXXXXXXXX 0#
b0000000000000000 1#
b0000000000000000 2#
#50000000
1"
1)
1;
1a
1t
1z
1#"
1)"
1/"
15"
1;"
1A"
1K"
b100000000000000101 X"
1b"
1p"
b100000000000000101 t"
1w"
1}"
b100000000000000101 "#
1##
b100000000000000101 &#
1)#
1-#
#100000000
0"
X#
0)
X*
0;
X<
0a
Xb
0t
Xu
0z
X{
0#"
X$"
0)"
X*"
0/"
X0"
05"
X6"
0;"
X<"
0A"
XB"
0K"
XL"
0b"
Xc"
0p"
Xr"
0w"
Xy"
0}"
0##
X%#
0)#
X*#
0-#
X/#
#150000000
1"
b0000001 (
1)
b0000001 +
b01 1
1;
1a
1t
1z
1#"
1)"
1/"
15"
1;"
1A"
1K"
b0000001 R"
b01 S"
0Z"
b0000010 \"
b0000001 ]"
1^"
b01 `"
1b"
b01 e"
0i"
1k"
1p"
0q"
b0000010 s"
b0000001 u"
b0000001 v"
1w"
0x"
b0000010 z"
b0000001 {"
b0000001 |"
1}"
b0000001 !#
1##
1$#
1)#
b01 +#
b01 ,#
1-#
#200000000
0"
0#
0)
0*
0;
0<
0a
0b
0t
0u
0z
0{
0#"
0$"
0)"
0*"
0/"
00"
05"
06"
0;"
0<"
0A"
0B"
0K"
0L"
0b"
0c"
0p"
0r"
0w"
0y"
0}"
0##
0%#
0)#
0*#
0-#
0/#
#250000000
1"
b100000000000000101 '
1)
b100000000000000101 ,
b10 1
b101 2
14
05
b0000000000000000 7
b0000000000000101 9
b101 :
1;
0?
b0000000000000101 @
b0000000000000000 A
b0000000000000000 G
b0000000000000000 I
b0000000000000000 K
b0000000000000000 L
b0000000000000000 M
b0000000000000000 P
b0000000000000000 Q
b0000000000000000 U
b0000000000000000 W
b0000000000000000 X
b0000000000000000 Y
b00000000000000000 \
b101 ^
1a
1t
1z
1#"
1)"
1/"
15"
1;"
1A"
b0000000000000101 H"
1K"
1N"
0O"
b0000000000000101 Q"
b10 S"
b100000000000000101 T"
b101 V"
b100000000000000101 W"
b010100000000000011 X"
1["
0^"
1_"
b10 `"
1b"
b100000000000000101 d"
b10 e"
0h"
1j"
0k"
1n"
1o"
1p"
b010100000000000011 t"
1w"
1}"
b010100000000000011 "#
1##
0$#
b010100000000000011 &#
b100000000000000101 '#
b100000000000000101 (#
1)#
b10 +#
b10 ,#
1-#
1.#
b0000000000000000 0#
#300000000
0"
0)
0;
0a
0t
0z
0#"
0)"
0/"
05"
0;"
0A"
0K"
0b"
0p"
0w"
0}"
0##
0)#
0-#
#350000000
1"
1)
b00 1
04
1;
1a
1t
1z
1#"
1)"
1/"
15"
1;"
1A"
1K"
0N"
b00 S"
1Z"
0["
0_"
b00 `"
1b"
b00 e"
1i"
0j"
0n"
0o"
1p"
1q"
1w"
1x"
1}"
1##
1)#
b00 +#
b00 ,#
1-#
0.#
#400000000
0"
0)
0;
0a
0t
0z
0#"
0)"
0/"
05"
0;"
0A"
0K"
0b"
0p"
0w"
0}"
0##
0)#
0-#
#450000000
1"
b0000010 (
1)
b0000010 +
b01 1
1;
1a
1t
1z
1#"
1)"
1/"
15"
1;"
1A"
1K"
b0000010 R"
b01 S"
0Z"
b0000011 \"
b0000010 ]"
1^"
b01 `"
1b"
b01 e"
0i"
1k"
1p"
0q"
b0000011 s"
b0000010 u"
b0000010 v"
1w"
0x"
b0000011 z"
b0000010 {"
b0000010 |"
1}"
b0000010 !#
1##
1$#
1)#
b01 +#
b01 ,#
1-#
#500000000
0"
0)
0;
0a
0t
0z
0#"
0)"
0/"
05"
0;"
0A"
0K"
0b"
0p"
0w"
0}"
0##
0)#
0-#
#550000000
1"
b010100000000000011 '
1)
b010100000000000011 ,
b10 1
b011 2
13
15
bXXXXXXXXXXXXXXXX 7
b0000000000000011 9
b011 :
1;
1=
1?
b0000000000000011 @
bXXXXXXXXXXXXXXXX A
bUUUUUUUUUUUUUUUU G
bUUUUUUUUUUUUUUUU I
bXXXXXXXXXXXXXXXX K
bXXXXXXXXXXXXXXXX L
bXXXXXXXXXXXXXXXX M
bXXXXXXXXXXXXXXXX P
bXXXXXXXXXXXXXXXX Q
bXXXXXXXXXXXXXXXX U
bUUUUUUUUUUUUUUUU W
bXXXXXXXXXXXXXXXX X
bXXXXXXXXXXXXXXXX Y
bXXXXXXXXXXXXXXXXX \
b011 ^
1`
1a
1o
1t
1z
1#"
1)"
1+"
1/"
15"
1;"
1A"
b0000000000000011 H"
1K"
1M"
1O"
b0000000000000011 Q"
b10 S"
b010100000000000011 T"
b011 V"
b010100000000000011 W"
b100000000000001000 X"
1Y"
0^"
1_"
b10 `"
1b"
b010100000000000011 d"
b10 e"
1h"
1j"
0k"
1l"
1o"
1p"
b100000000000001000 t"
1w"
1}"
b100000000000001000 "#
1##
0$#
b100000000000001000 &#
b010100000000000011 '#
b010100000000000011 (#
1)#
b10 +#
b10 ,#
1-#
bXXXXXXXXXXXXXXXX 0#
#600000000
0"
0)
0;
0a
0t
0z
0#"
0)"
0/"
05"
0;"
0A"
0K"
0b"
0p"
0w"
0}"
0##
0)#
0-#
#650000000
1"
bUUUUUUUUUUUUUUUU $
1)
bUUUUUUUUUUUUUUUU -
b00 1
1;
bUUUUUUUUUUUUUUUU D
bUUUUUUUUUUUUUUUU E
bUUUUUUUUUUUUUUUU F
bUUUUUUUUUUUUUUUU H
bUUUUUUUUUUUUUUUU V
1a
bUUUUUUUUUUUUUUUU c
bUUUUUUUUUUUUUUUU g
1t
1z
1#"
1)"
bUUUUUUUUUUUUUUUU -"
bUUUUUUUUUUUUUUUU ."
1/"
15"
1;"
1A"
bUUUUUUUUUUUUUUUU G"
bUUUUUUUUUUUUUUUU J"
1K"
b00 S"
1Z"
0_"
b00 `"
1b"
b00 e"
1i"
0j"
0o"
1p"
1q"
1w"
1x"
1}"
1##
1)#
b00 +#
b00 ,#
1-#
#700000000
0"
0)
0;
0a
0t
0z
0#"
0)"
0/"
05"
0;"
0A"
0K"
0b"
0p"
0w"
0}"
0##
0)#
0-#
#750000000
1"
b0000011 (
1)
b0000011 +
b01 1
1;
1a
1t
1z
1#"
1)"
1/"
15"
1;"
1A"
1K"
b0000011 R"
b01 S"
0Z"
b0000100 \"
b0000011 ]"
1^"
b01 `"
1b"
b01 e"
0i"
1k"
1p"
0q"
b0000100 s"
b0000011 u"
b0000011 v"
1w"
0x"
b0000100 z"
b0000011 {"
b0000011 |"
1}"
b0000011 !#
1##
1$#
1)#
b01 +#
b01 ,#
1-#
#800000000
0"
0)
0;
0a
0t
0z
0#"
0)"
0/"
05"
0;"
0A"
0K"
0b"
0p"
0w"
0}"
0##
0)#
0-#
#850000000
1"
b0000000000000000 $
b100000000000001000 '
1)
b100000000000001000 ,
b0000000000000000 -
b10 1
b000 2
03
14
05
b0000000000000000 7
b0000000000001000 9
b000 :
1;
0=
0?
b0000000000001000 @
b0000000000000000 A
b0000000000000000 D
b0000000000000000 E
b0000000000000000 F
b0000000000000000 G
b0000000000000000 H
b0000000000000000 I
b0000000000000000 K
b0000000000000000 L
b0000000000000000 M
b0000000000000000 P
b0000000000000000 Q
b0000000000000000 U
b0000000000000000 V
b0000000000000000 W
b0000000000000000 X
b0000000000000000 Y
b00000000000000000 \
b000 ^
0`
1a
b0000000000000000 c
0l
0o
1t
0v
1z
1#"
1)"
0+"
1/"
15"
1;"
1A"
b0000000000000000 G"
b0000000000001000 H"
b0000000000000000 J"
1K"
0M"
1N"
0O"
b0000000000001000 Q"
b10 S"
b100000000000001000 T"
b000 V"
b100000000000001000 W"
b010100000000000100 X"
0Y"
1["
0^"
1_"
b10 `"
1b"
b100000000000001000 d"
b10 e"
0h"
1j"
0k"
0l"
1n"
1o"
1p"
b010100000000000100 t"
1w"
1}"
b010100000000000100 "#
1##
0$#
b010100000000000100 &#
b100000000000001000 '#
b100000000000001000 (#
1)#
b10 +#
b10 ,#
1-#
1.#
b0000000000000000 0#
#900000000
0"
0)
0;
0a
0t
0z
0#"
0)"
0/"
05"
0;"
0A"
0K"
0b"
0p"
0w"
0}"
0##
0)#
0-#
#950000000
1"
1)
b00 1
04
1;
1a
1t
1z
1#"
1)"
1/"
15"
1;"
1A"
1K"
0N"
b00 S"
1Z"
0["
0_"
b00 `"
1b"
b00 e"
1i"
0j"
0n"
0o"
1p"
1q"
1w"
1x"
1}"
1##
1)#
b00 +#
b00 ,#
1-#
0.#
#1000000000
0"
0)
0;
0a
0t
0z
0#"
0)"
0/"
05"
0;"
0A"
0K"
0b"
0p"
0w"
0}"
0##
0)#
0-#
#1050000000
1"
b0000100 (
1)
b0000100 +
b01 1
1;
1a
1t
1z
1#"
1)"
1/"
15"
1;"
1A"
1K"
b0000100 R"
b01 S"
0Z"
b0000101 \"
b0000100 ]"
1^"
b01 `"
1b"
b01 e"
0i"
1k"
1p"
0q"
b0000101 s"
b0000100 u"
b0000100 v"
1w"
0x"
b0000101 z"
b0000100 {"
b0000100 |"
1}"
b0000100 !#
1##
1$#
1)#
b01 +#
b01 ,#
1-#
#1100000000
0"
0)
0;
0a
0t
0z
0#"
0)"
0/"
05"
0;"
0A"
0K"
0b"
0p"
0w"
0}"
0##
0)#
0-#
#1150000000
1"
b010100000000000100 '
1)
b010100000000000100 ,
b10 1
b100 2
13
15
bXXXXXXXXXXXXXXXX 7
b0000000000000100 9
b100 :
1;
1=
1?
b0000000000000100 @
bXXXXXXXXXXXXXXXX A
bUUUUUUUUUUUUUUUU G
bUUUUUUUUUUUUUUUU I
bXXXXXXXXXXXXXXXX K
bXXXXXXXXXXXXXXXX L
bXXXXXXXXXXXXXXXX M
bXXXXXXXXXXXXXXXX P
bXXXXXXXXXXXXXXXX Q
bXXXXXXXXXXXXXXXX U
bUUUUUUUUUUUUUUUU W
bXXXXXXXXXXXXXXXX X
bXXXXXXXXXXXXXXXX Y
bXXXXXXXXXXXXXXXXX \
b100 ^
1`
1a
1p
1t
1z
1#"
1)"
1/"
11"
15"
1;"
1A"
b0000000000000100 H"
1K"
1M"
1O"
b0000000000000100 Q"
b10 S"
b010100000000000100 T"
b100 V"
b010100000000000100 W"
b110100000000000011 X"
1Y"
0^"
1_"
b10 `"
1b"
b010100000000000100 d"
b10 e"
1h"
1j"
0k"
1l"
1o"
1p"
b110100000000000011 t"
1w"
1}"
b110100000000000011 "#
1##
0$#
b110100000000000011 &#
b010100000000000100 '#
b010100000000000100 (#
1)#
b10 +#
b10 ,#
1-#
bXXXXXXXXXXXXXXXX 0#
#1200000000
0"
0)
0;
0a
0t
0z
0#"
0)"
0/"
05"
0;"
0A"
0K"
0b"
0p"
0w"
0}"
0##
0)#
0-#
#1250000000
1"
bUUUUUUUUUUUUUUUU $
1)
bUUUUUUUUUUUUUUUU -
b00 1
1;
bUUUUUUUUUUUUUUUU D
bUUUUUUUUUUUUUUUU E
bUUUUUUUUUUUUUUUU F
bUUUUUUUUUUUUUUUU H
bUUUUUUUUUUUUUUUU V
1a
bUUUUUUUUUUUUUUUU c
bUUUUUUUUUUUUUUUU h
1t
1z
1#"
1)"
1/"
bUUUUUUUUUUUUUUUU 3"
bUUUUUUUUUUUUUUUU 4"
15"
1;"
1A"
bUUUUUUUUUUUUUUUU G"
bUUUUUUUUUUUUUUUU J"
1K"
b00 S"
1Z"
0_"
b00 `"
1b"
b00 e"
1i"
0j"
0o"
1p"
1q"
1w"
1x"
1}"
1##
1)#
b00 +#
b00 ,#
1-#
#1300000000
0"
0)
0;
0a
0t
0z
0#"
0)"
0/"
05"
0;"
0A"
0K"
0b"
0p"
0w"
0}"
0##
0)#
0-#
#1350000000
1"
b0000101 (
1)
b0000101 +
b01 1
1;
1a
1t
1z
1#"
1)"
1/"
15"
1;"
1A"
1K"
b0000101 R"
b01 S"
0Z"
b0000110 \"
b0000101 ]"
1^"
b01 `"
1b"
b01 e"
0i"
1k"
1p"
0q"
b0000110 s"
b0000101 u"
b0000101 v"
1w"
0x"
b0000110 z"
b0000101 {"
b0000101 |"
1}"
b0000101 !#
1##
1$#
1)#
b01 +#
b01 ,#
1-#
#1400000000
0"
0)
0;
0a
0t
0z
0#"
0)"
0/"
05"
0;"
0A"
0K"
0b"
0p"
0w"
0}"
0##
0)#
0-#
#1450000000
1"
b110100000000000011 '
1)
b110100000000000011 ,
b10 1
b011 2
03
14
X5
b0000000000000011 9
b011 :
1;
0=
X?
b0000000000000011 @
b0000000000000000 G
b0000000000000000 I
b0000000000000000 W
b011 ^
0`
1a
0o
0p
1t
1z
1#"
1)"
0+"
1/"
01"
15"
1;"
1A"
b0000000000000011 H"
1K"
0M"
1N"
XO"
b0000000000000011 Q"
b10 S"
b110100000000000011 T"
b011 V"
b110100000000000011 W"
b000100000000000100 X"
0Y"
1["
0^"
1_"
b10 `"
1b"
b110100000000000011 d"
b10 e"
Xh"
1j"
0k"
0l"
1n"
1o"
1p"
b000100000000000100 t"
1w"
1}"
b000100000000000100 "#
1##
0$#
b000100000000000100 &#
b110100000000000011 '#
b110100000000000011 (#
1)#
b10 +#
b10 ,#
1-#
1.#
#1500000000
0"
0)
0;
0a
0t
0z
0#"
0)"
0/"
05"
0;"
0A"
0K"
0b"
0p"
0w"
0}"
0##
0)#
0-#
#1550000000
1"
bXXXXXXXXXXXXXXXX &
1)
bXXXXXXXXXXXXXXXX .
b00 1
04
1;
1a
1t
1z
1#"
1)"
1/"
15"
1;"
1A"
1K"
0N"
b00 S"
1Z"
0["
0_"
b00 `"
1b"
b00 e"
1i"
0j"
0n"
0o"
1p"
1q"
1w"
1x"
1}"
1##
1)#
b00 +#
b00 ,#
1-#
0.#
bXXXXXXXXXXXXXXXX 1#
bXXXXXXXXXXXXXXXX 2#
#1600000000
0"
0)
0;
0a
0t
0z
0#"
0)"
0/"
05"
0;"
0A"
0K"
0b"
0p"
0w"
0}"
0##
0)#
0-#
#1650000000
1"
b0000110 (
1)
b0000110 +
b01 1
1;
1a
1t
1z
1#"
1)"
1/"
15"
1;"
1A"
1K"
b0000110 R"
b01 S"
0Z"
b0000111 \"
b0000110 ]"
1^"
b01 `"
1b"
b01 e"
0i"
1k"
1p"
0q"
b0000111 s"
b0000110 u"
b0000110 v"
1w"
0x"
b0000111 z"
b0000110 {"
b0000110 |"
1}"
b0000110 !#
1##
1$#
1)#
b01 +#
b01 ,#
1-#
#1700000000
0"
0)
0;
0a
0t
0z
0#"
0)"
0/"
05"
0;"
0A"
0K"
0b"
0p"
0w"
0}"
0##
0)#
0-#
#1750000000
1"
b000100000000000100 '
1)
b000100000000000100 ,
b10 1
b100 2
14
15
b0000000000000100 9
b100 :
1;
1?
b0000000000000100 @
bUUUUUUUUUUUUUUUU G
bUUUUUUUUUUUUUUUU I
bUUUUUUUUUUUUUUUU W
b100 ^
1a
1t
1z
1#"
1)"
1/"
15"
1;"
1A"
b0000000000000100 H"
1K"
1N"
1O"
b0000000000000100 Q"
b10 S"
b000100000000000100 T"
b100 V"
b000100000000000100 W"
b010100000000000101 X"
1["
0^"
1_"
b10 `"
1b"
b000100000000000100 d"
b10 e"
1h"
1j"
0k"
1n"
1o"
1p"
b010100000000000101 t"
1w"
1}"
b010100000000000101 "#
1##
0$#
b010100000000000101 &#
b000100000000000100 '#
b000100000000000100 (#
1)#
b10 +#
b10 ,#
1-#
1.#
#1800000000
0"
0)
0;
0a
0t
0z
0#"
0)"
0/"
05"
0;"
0A"
0K"
0b"
0p"
0w"
0}"
0##
0)#
0-#
#1850000000
1"
1)
b00 1
04
1;
1a
1t
1z
1#"
1)"
1/"
15"
1;"
1A"
1K"
0N"
b00 S"
1Z"
0["
0_"
b00 `"
1b"
b00 e"
1i"
0j"
0n"
0o"
1p"
1q"
1w"
1x"
1}"
1##
1)#
b00 +#
b00 ,#
1-#
0.#
#1900000000
0"
0)
0;
0a
0t
0z
0#"
0)"
0/"
05"
0;"
0A"
0K"
0b"
0p"
0w"
0}"
0##
0)#
0-#
#1950000000
1"
b0000111 (
1)
b0000111 +
b01 1
1;
1a
1t
1z
1#"
1)"
1/"
15"
1;"
1A"
1K"
b0000111 R"
b01 S"
0Z"
b0001000 \"
b0000111 ]"
1^"
b01 `"
1b"
b01 e"
0i"
1k"
1p"
0q"
b0001000 s"
b0000111 u"
b0000111 v"
1w"
0x"
b0001000 z"
b0000111 {"
b0000111 |"
1}"
b0000111 !#
1##
1$#
1)#
b01 +#
b01 ,#
1-#
#2000000000
0"
0)
0;
0a
0t
0z
0#"
0)"
0/"
05"
0;"
0A"
0K"
0b"
0p"
0w"
0}"
0##
0)#
0-#
#2050000000
1"
b0000000000000000 $
b010100000000000101 '
1)
b010100000000000101 ,
b0000000000000000 -
b10 1
b101 2
13
b0000000000000101 9
b101 :
1;
1=
b0000000000000101 @
b0000000000000000 D
b0000000000000000 E
b0000000000000000 F
b0000000000000000 H
b0000000000000000 V
b101 ^
1`
1a
b0000000000000000 c
1q
1t
1z
1#"
1)"
1/"
15"
17"
1;"
1A"
b0000000000000000 G"
b0000000000000101 H"
b0000000000000000 J"
1K"
1M"
1O"
b0000000000000101 Q"
b10 S"
b010100000000000101 T"
b101 V"
b010100000000000101 W"
b101000000000000001 X"
1Y"
0^"
1_"
b10 `"
1b"
b010100000000000101 d"
b10 e"
1h"
1j"
0k"
1l"
1o"
1p"
b101000000000000001 t"
1w"
1}"
b101000000000000001 "#
1##
0$#
b101000000000000001 &#
b010100000000000101 '#
b010100000000000101 (#
1)#
b10 +#
b10 ,#
1-#
#2100000000
0"
0)
0;
0a
0t
0z
0#"
0)"
0/"
05"
0;"
0A"
0K"
0b"
0p"
0w"
0}"
0##
0)#
0-#
