TOPLVL/teste.vcd
$date
  Sun May 14 14:17:50 2023
$end
$version
  GHDL v0
$end
$timescale
  1 fs
$end
$scope module standard $end
$upscope $end
$scope module std_logic_1164 $end
$upscope $end
$scope module numeric_std $end
$upscope $end
$scope module toplvl_tb $end
$var reg 1 ! finished $end
$var reg 1 " clk $end
$var reg 1 # rst $end
$var reg 16 $ reg[15:0] $end
$var reg 16 % ula[15:0] $end
$var reg 16 & acumulador[15:0] $end
$var reg 18 ' instru[17:0] $end
$var reg 7 ( pc_out[6:0] $end
$scope module uut $end
$var reg 1 ) clk $end
$var reg 1 * rst $end
$var reg 7 + pc[6:0] $end
$var reg 18 , instruction[17:0] $end
$var reg 16 - reg[15:0] $end
$var reg 16 . acumulador_out[15:0] $end
$var reg 16 / ula[15:0] $end
$var reg 2 0 mux_operation_s[1:0] $end
$var reg 2 1 state_s[1:0] $end
$var reg 3 2 reg_s[2:0] $end
$var reg 1 3 wr_en_br_s $end
$var reg 1 4 wr_en_acumulador_s $end
$var reg 1 5 acumulador_en_s $end
$var reg 1 6 mux_br_ula_s[0:0] $end
$var reg 16 7 ula_result_s[15:0] $end
$var reg 16 8 acumulador_s[15:0] $end
$var reg 16 9 immediate_s[15:0] $end
$scope module bancoreg_ula1 $end
$var reg 3 : reg[2:0] $end
$var reg 1 ; clk $end
$var reg 1 < rst $end
$var reg 1 = wr_en $end
$var reg 1 > mux_sel[0:0] $end
$var reg 1 ? acumulador_en $end
$var reg 16 @ mux_in_2[15:0] $end
$var reg 16 A ula_result[15:0] $end
$var reg 2 B mux_operation[1:0] $end
$var reg 16 C acumulador[15:0] $end
$var reg 16 D read_data[15:0] $end
$var reg 16 E read_data_s[15:0] $end
$var reg 16 F mux_data_s[15:0] $end
$var reg 16 G ula_val1_s[15:0] $end
$scope module ula0 $end
$var reg 16 H val0[15:0] $end
$var reg 16 I val1[15:0] $end
$var reg 2 J mux_operation[1:0] $end
$var reg 16 K saida[15:0] $end
$var reg 16 L ope1[15:0] $end
$var reg 16 M ope2[15:0] $end
$var reg 16 N ope3[15:0] $end
$var reg 16 O ope4[15:0] $end
$scope module mux4x11 $end
$var reg 16 P ope1[15:0] $end
$var reg 16 Q ope2[15:0] $end
$var reg 16 R ope3[15:0] $end
$var reg 16 S ope4[15:0] $end
$var reg 2 T sel[1:0] $end
$var reg 16 U saida[15:0] $end
$upscope $end
$scope module operacoes1 $end
$var reg 16 V val0[15:0] $end
$var reg 16 W val1[15:0] $end
$var reg 16 X soma[15:0] $end
$var reg 16 Y subtracao[15:0] $end
$var reg 16 Z maior_que[15:0] $end
$var reg 16 [ multiplicacao[15:0] $end
$var reg 17 \ soma_ext[16:0] $end
$var reg 32 ] multip_ext[31:0] $end
$upscope $end
$upscope $end
$scope module bancoreg0 $end
$var reg 3 ^ reg[2:0] $end
$var reg 16 _ dado[15:0] $end
$var reg 1 ` wr_en $end
$var reg 1 a clk $end
$var reg 1 b rst $end
$var reg 16 c read_data[15:0] $end
$var reg 16 d r_data0[15:0] $end
$var reg 16 e r_data1[15:0] $end
$var reg 16 f r_data2[15:0] $end
$var reg 16 g r_data3[15:0] $end
$var reg 16 h r_data4[15:0] $end
$var reg 16 i r_data5[15:0] $end
$var reg 16 j r_data6[15:0] $end
$var reg 16 k r_data7[15:0] $end
$var reg 1 l wr_en0 $end
$var reg 1 m wr_en1 $end
$var reg 1 n wr_en2 $end
$var reg 1 o wr_en3 $end
$var reg 1 p wr_en4 $end
$var reg 1 q wr_en5 $end
$var reg 1 r wr_en6 $end
$var reg 1 s wr_en7 $end
$scope module registrador0 $end
$var reg 1 t clk $end
$var reg 1 u rst $end
$var reg 1 v wr_en $end
$var reg 16 w data_in[15:0] $end
$var reg 16 x data_out[15:0] $end
$var reg 16 y registro[15:0] $end
$upscope $end
$scope module registrador1 $end
$var reg 1 z clk $end
$var reg 1 { rst $end
$var reg 1 | wr_en $end
$var reg 16 } data_in[15:0] $end
$var reg 16 !" data_out[15:0] $end
$var reg 16 "" registro[15:0] $end
$upscope $end
$scope module registrador2 $end
$var reg 1 #" clk $end
$var reg 1 $" rst $end
$var reg 1 %" wr_en $end
$var reg 16 &" data_in[15:0] $end
$var reg 16 '" data_out[15:0] $end
$var reg 16 (" registro[15:0] $end
$upscope $end
$scope module registrador3 $end
$var reg 1 )" clk $end
$var reg 1 *" rst $end
$var reg 1 +" wr_en $end
$var reg 16 ," data_in[15:0] $end
$var reg 16 -" data_out[15:0] $end
$var reg 16 ." registro[15:0] $end
$upscope $end
$scope module registrador4 $end
$var reg 1 /" clk $end
$var reg 1 0" rst $end
$var reg 1 1" wr_en $end
$var reg 16 2" data_in[15:0] $end
$var reg 16 3" data_out[15:0] $end
$var reg 16 4" registro[15:0] $end
$upscope $end
$scope module registrador5 $end
$var reg 1 5" clk $end
$var reg 1 6" rst $end
$var reg 1 7" wr_en $end
$var reg 16 8" data_in[15:0] $end
$var reg 16 9" data_out[15:0] $end
$var reg 16 :" registro[15:0] $end
$upscope $end
$scope module registrador6 $end
$var reg 1 ;" clk $end
$var reg 1 <" rst $end
$var reg 1 =" wr_en $end
$var reg 16 >" data_in[15:0] $end
$var reg 16 ?" data_out[15:0] $end
$var reg 16 @" registro[15:0] $end
$upscope $end
$scope module registrador7 $end
$var reg 1 A" clk $end
$var reg 1 B" rst $end
$var reg 1 C" wr_en $end
$var reg 16 D" data_in[15:0] $end
$var reg 16 E" data_out[15:0] $end
$var reg 16 F" registro[15:0] $end
$upscope $end
$upscope $end
$scope module mux0 $end
$var reg 16 G" sinal1[15:0] $end
$var reg 16 H" sinal2[15:0] $end
$var reg 1 I" sel[0:0] $end
$var reg 16 J" saida[15:0] $end
$upscope $end
$upscope $end
$scope module uc_pc_rom1 $end
$var reg 1 K" clk $end
$var reg 1 L" rst $end
$var reg 1 M" wr_en_br $end
$var reg 1 N" wr_en_acumulador $end
$var reg 1 O" acumulador_en $end
$var reg 1 P" mux_br_ula_sel[0:0] $end
$var reg 16 Q" immediate[15:0] $end
$var reg 7 R" pc[6:0] $end
$var reg 2 S" state[1:0] $end
$var reg 18 T" instruction_out[17:0] $end
$var reg 2 U" mux_operation[1:0] $end
$var reg 3 V" reg[2:0] $end
$var reg 18 W" instruction_s[17:0] $end
$var reg 18 X" instruction_rom_s[17:0] $end
$var reg 1 Y" wr_en_br_s $end
$var reg 1 Z" wr_en_pcrom_s $end
$var reg 1 [" wr_en_acumulador_s $end
$var reg 7 \" pc_in[6:0] $end
$var reg 7 ]" pc_out[6:0] $end
$var reg 1 ^" wr_en_reg_instr_s $end
$var reg 1 _" fetch $end
$var reg 1 `" decode $end
$var reg 1 a" execute $end
$var reg 2 b" state_s[1:0] $end
$var reg 1 c" jump_s $end
$scope module controle0 $end
$var reg 1 d" clk $end
$var reg 1 e" rst $end
$var reg 18 f" instruction[17:0] $end
$var reg 2 g" state[1:0] $end
$var reg 1 h" jump_en $end
$var reg 1 i" mux_br_ula_sel[0:0] $end
$var reg 1 j" acumulador_en $end
$var reg 1 k" fetch $end
$var reg 1 l" execute $end
$var reg 1 m" decode $end
$var reg 1 n" wr_en_br $end
$var reg 2 o" mux_operation[1:0] $end
$var reg 1 p" wr_en_acumulador $end
$upscope $end
$scope module pcrom0 $end
$var reg 1 q" clk $end
$var reg 1 r" wr_en $end
$var reg 1 s" rst $end
$var reg 7 t" data_in_pc[6:0] $end
$var reg 18 u" data_out_rom[17:0] $end
$var reg 7 v" data_out_pc[6:0] $end
$var reg 7 w" registro[6:0] $end
$scope module pc0 $end
$var reg 1 x" clk $end
$var reg 1 y" wr_en $end
$var reg 1 z" rst $end
$var reg 7 {" data_in[6:0] $end
$var reg 7 |" data_out[6:0] $end
$var reg 7 }" registro[6:0] $end
$upscope $end
$scope module rom0 $end
$var reg 1 !# clk $end
$var reg 7 "# endereco[6:0] $end
$var reg 18 ## dado[17:0] $end
$upscope $end
$upscope $end
$scope module reg_instr1 $end
$var reg 1 $# clk $end
$var reg 1 %# wr_en $end
$var reg 1 &# rst $end
$var reg 18 '# data_in[17:0] $end
$var reg 18 (# data_out[17:0] $end
$var reg 18 )# registro[17:0] $end
$upscope $end
$scope module maq_est1 $end
$var reg 1 *# clk $end
$var reg 1 +# rst $end
$var reg 2 ,# state[1:0] $end
$var reg 2 -# estado_s[1:0] $end
$upscope $end
$upscope $end
$scope module acumulador1 $end
$var reg 1 .# clk $end
$var reg 1 /# wr_en $end
$var reg 1 0# rst $end
$var reg 16 1# data_in[15:0] $end
$var reg 16 2# data_out[15:0] $end
$var reg 16 3# registro[15:0] $end
$upscope $end
$upscope $end
$upscope $end
$enddefinitions $end
#0
0!
0"
1#
b0000000000000000 $
bUUUUUUUUUUUUUUUU %
b0000000000000000 &
b000000000000000000 '
b0000000 (
0)
1*
b0000000 +
b000000000000000000 ,
b0000000000000000 -
b0000000000000000 .
bUUUUUUUUUUUUUUUU /
b00 0
bUU 1
bUUU 2
U3
U4
15
b0 6
bXXXXXXXXXXXXXXXX 7
bUUUUUUUUUUUUUUUU 8
b0000000000000000 9
bUUU :
0;
1<
U=
b0 >
1?
b0000000000000000 @
bXXXXXXXXXXXXXXXX A
b00 B
bUUUUUUUUUUUUUUUU C
b0000000000000000 D
b0000000000000000 E
b0000000000000000 F
bUUUUUUUUUUUUUUUU G
b0000000000000000 H
bUUUUUUUUUUUUUUUU I
b00 J
bXXXXXXXXXXXXXXXX K
bXXXXXXXXXXXXXXXX L
bXXXXXXXXXXXXXXXX M
b0000000000000000 N
b0000000000000000 O
bXXXXXXXXXXXXXXXX P
bXXXXXXXXXXXXXXXX Q
b0000000000000000 R
b0000000000000000 S
b00 T
bXXXXXXXXXXXXXXXX U
b0000000000000000 V
bUUUUUUUUUUUUUUUU W
bXXXXXXXXXXXXXXXX X
bXXXXXXXXXXXXXXXX Y
b0000000000000000 Z
b0000000000000000 [
bXXXXXXXXXXXXXXXXX \
b00000000000000000000000000000000 ]
bUUU ^
bUUUUUUUUUUUUUUUU _
U`
0a
1b
b0000000000000000 c
b0000000000000000 d
b0000000000000000 e
b0000000000000000 f
b0000000000000000 g
b0000000000000000 h
b0000000000000000 i
b0000000000000000 j
b0000000000000000 k
0l
0m
0n
0o
0p
0q
0r
0s
0t
1u
0v
bUUUUUUUUUUUUUUUU w
b0000000000000000 x
b0000000000000000 y
0z
1{
0|
bUUUUUUUUUUUUUUUU }
b0000000000000000 !"
b0000000000000000 ""
0#"
1$"
0%"
bUUUUUUUUUUUUUUUU &"
b0000000000000000 '"
b0000000000000000 ("
0)"
1*"
0+"
bUUUUUUUUUUUUUUUU ,"
b0000000000000000 -"
b0000000000000000 ."
0/"
10"
01"
bUUUUUUUUUUUUUUUU 2"
b0000000000000000 3"
b0000000000000000 4"
05"
16"
07"
bUUUUUUUUUUUUUUUU 8"
b0000000000000000 9"
b0000000000000000 :"
0;"
1<"
0="
bUUUUUUUUUUUUUUUU >"
b0000000000000000 ?"
b0000000000000000 @"
0A"
1B"
0C"
bUUUUUUUUUUUUUUUU D"
b0000000000000000 E"
b0000000000000000 F"
b0000000000000000 G"
b0000000000000000 H"
b0 I"
b0000000000000000 J"
0K"
1L"
UM"
UN"
1O"
b0 P"
b0000000000000000 Q"
b0000000 R"
bUU S"
b000000000000000000 T"
b00 U"
bUUU V"
b000000000000000000 W"
bUUUUUUUUUUUUUUUUUU X"
0Y"
1Z"
0["
b0000001 \"
b0000000 ]"
U^"
0_"
0`"
0a"
bUU b"
0c"
0d"
1e"
b000000000000000000 f"
bUU g"
0h"
b0 i"
1j"
0k"
0l"
0m"
0n"
b00 o"
0p"
0q"
1r"
1s"
b0000001 t"
bUUUUUUUUUUUUUUUUUU u"
b0000000 v"
b0000000 w"
0x"
1y"
1z"
b0000001 {"
b0000000 |"
b0000000 }"
0!#
b0000000 "#
bUUUUUUUUUUUUUUUUUU ##
0$#
U%#
1&#
bUUUUUUUUUUUUUUUUUU '#
b000000000000000000 (#
b000000000000000000 )#
0*#
1+#
bUU ,#
b00 -#
0.#
U/#
10#
bXXXXXXXXXXXXXXXX 1#
b0000000000000000 2#
b0000000000000000 3#
#50000000
1"
1)
1;
1a
1t
1z
1#"
1)"
1/"
15"
1;"
1A"
1K"
b100000000000000101 X"
1d"
1q"
b100000000000000101 u"
1x"
1!#
b100000000000000101 ##
1$#
b100000000000000101 '#
1*#
1.#
#100000000
0"
X#
0)
X*
0;
X<
0a
Xb
0t
Xu
0z
X{
0#"
X$"
0)"
X*"
0/"
X0"
05"
X6"
0;"
X<"
0A"
XB"
0K"
XL"
0d"
Xe"
0q"
Xs"
0x"
Xz"
0!#
0$#
X&#
0*#
X+#
0.#
X0#
#150000000
1"
b0000001 (
1)
b0000001 +
1;
1a
1t
1z
1#"
1)"
1/"
15"
1;"
1A"
1K"
b0000001 R"
bUU S"
b0000010 \"
b0000001 ]"
1d"
1q"
b0000010 t"
b0000001 v"
b0000001 w"
1x"
b0000010 {"
b0000001 |"
b0000001 }"
1!#
b0000001 "#
1$#
1*#
bUU ,#
b01 -#
1.#
#200000000
0"
0#
0)
0*
0;
0<
0a
0b
0t
0u
0z
0{
0#"
0$"
0)"
0*"
0/"
00"
05"
06"
0;"
0<"
0A"
0B"
0K"
0L"
0d"
0e"
0q"
0s"
0x"
0z"
0!#
0$#
0&#
0*#
0+#
0.#
00#
#250000000
1"
b0000010 (
1)
b0000010 +
1;
1a
1t
1z
1#"
1)"
1/"
15"
1;"
1A"
1K"
b0000010 R"
bUU S"
b010100000000000011 X"
b0000011 \"
b0000010 ]"
1d"
1q"
b0000011 t"
b010100000000000011 u"
b0000010 v"
b0000010 w"
1x"
b0000011 {"
b0000010 |"
b0000010 }"
1!#
b0000010 "#
b010100000000000011 ##
1$#
b010100000000000011 '#
1*#
bUU ,#
b10 -#
1.#
#300000000
0"
0)
0;
0a
0t
0z
0#"
0)"
0/"
05"
0;"
0A"
0K"
0d"
0q"
0x"
0!#
0$#
0*#
0.#
#350000000
1"
b0000011 (
1)
b0000011 +
1;
1a
1t
1z
1#"
1)"
1/"
15"
1;"
1A"
1K"
b0000011 R"
bUU S"
b100000000000001000 X"
b0000100 \"
b0000011 ]"
1d"
1q"
b0000100 t"
b100000000000001000 u"
b0000011 v"
b0000011 w"
1x"
b0000100 {"
b0000011 |"
b0000011 }"
1!#
b0000011 "#
b100000000000001000 ##
1$#
b100000000000001000 '#
1*#
bUU ,#
b00 -#
1.#
#400000000
0"
0)
0;
0a
0t
0z
0#"
0)"
0/"
05"
0;"
0A"
0K"
0d"
0q"
0x"
0!#
0$#
0*#
0.#
#450000000
1"
b0000100 (
1)
b0000100 +
1;
1a
1t
1z
1#"
1)"
1/"
15"
1;"
1A"
1K"
b0000100 R"
bUU S"
b010100000000000100 X"
b0000101 \"
b0000100 ]"
1d"
1q"
b0000101 t"
b010100000000000100 u"
b0000100 v"
b0000100 w"
1x"
b0000101 {"
b0000100 |"
b0000100 }"
1!#
b0000100 "#
b010100000000000100 ##
1$#
b010100000000000100 '#
1*#
bUU ,#
b01 -#
1.#
#500000000
0"
0)
0;
0a
0t
0z
0#"
0)"
0/"
05"
0;"
0A"
0K"
0d"
0q"
0x"
0!#
0$#
0*#
0.#
#550000000
1"
b0000101 (
1)
b0000101 +
1;
1a
1t
1z
1#"
1)"
1/"
15"
1;"
1A"
1K"
b0000101 R"
bUU S"
b110100000000000011 X"
b0000110 \"
b0000101 ]"
1d"
1q"
b0000110 t"
b110100000000000011 u"
b0000101 v"
b0000101 w"
1x"
b0000110 {"
b0000101 |"
b0000101 }"
1!#
b0000101 "#
b110100000000000011 ##
1$#
b110100000000000011 '#
1*#
bUU ,#
b10 -#
1.#
#600000000
0"
0)
0;
0a
0t
0z
0#"
0)"
0/"
05"
0;"
0A"
0K"
0d"
0q"
0x"
0!#
0$#
0*#
0.#
#650000000
1"
b0000110 (
1)
b0000110 +
1;
1a
1t
1z
1#"
1)"
1/"
15"
1;"
1A"
1K"
b0000110 R"
bUU S"
b000100000000000100 X"
b0000111 \"
b0000110 ]"
1d"
1q"
b0000111 t"
b000100000000000100 u"
b0000110 v"
b0000110 w"
1x"
b0000111 {"
b0000110 |"
b0000110 }"
1!#
b0000110 "#
b000100000000000100 ##
1$#
b000100000000000100 '#
1*#
bUU ,#
b00 -#
1.#
#700000000
0"
0)
0;
0a
0t
0z
0#"
0)"
0/"
05"
0;"
0A"
0K"
0d"
0q"
0x"
0!#
0$#
0*#
0.#
#750000000
1"
b0000111 (
1)
b0000111 +
1;
1a
1t
1z
1#"
1)"
1/"
15"
1;"
1A"
1K"
b0000111 R"
bUU S"
b010100000000000101 X"
b0001000 \"
b0000111 ]"
1d"
1q"
b0001000 t"
b010100000000000101 u"
b0000111 v"
b0000111 w"
1x"
b0001000 {"
b0000111 |"
b0000111 }"
1!#
b0000111 "#
b010100000000000101 ##
1$#
b010100000000000101 '#
1*#
bUU ,#
b01 -#
1.#
#800000000
0"
0)
0;
0a
0t
0z
0#"
0)"
0/"
05"
0;"
0A"
0K"
0d"
0q"
0x"
0!#
0$#
0*#
0.#
#850000000
1"
b0001000 (
1)
b0001000 +
1;
1a
1t
1z
1#"
1)"
1/"
15"
1;"
1A"
1K"
b0001000 R"
bUU S"
b101000000000000001 X"
b0001001 \"
b0001000 ]"
1d"
1q"
b0001001 t"
b101000000000000001 u"
b0001000 v"
b0001000 w"
1x"
b0001001 {"
b0001000 |"
b0001000 }"
1!#
b0001000 "#
b101000000000000001 ##
1$#
b101000000000000001 '#
1*#
bUU ,#
b10 -#
1.#
#900000000
0"
0)
0;
0a
0t
0z
0#"
0)"
0/"
05"
0;"
0A"
0K"
0d"
0q"
0x"
0!#
0$#
0*#
0.#
#950000000
1"
b0001001 (
1)
b0001001 +
1;
1a
1t
1z
1#"
1)"
1/"
15"
1;"
1A"
1K"
b0001001 R"
bUU S"
b010100000000000101 X"
b0001010 \"
b0001001 ]"
1d"
1q"
b0001010 t"
b010100000000000101 u"
b0001001 v"
b0001001 w"
1x"
b0001010 {"
b0001001 |"
b0001001 }"
1!#
b0001001 "#
b010100000000000101 ##
1$#
b010100000000000101 '#
1*#
bUU ,#
b00 -#
1.#
#1000000000
0"
0)
0;
0a
0t
0z
0#"
0)"
0/"
05"
0;"
0A"
0K"
0d"
0q"
0x"
0!#
0$#
0*#
0.#
#1050000000
1"
b0001010 (
1)
b0001010 +
1;
1a
1t
1z
1#"
1)"
1/"
15"
1;"
1A"
1K"
b0001010 R"
bUU S"
b011000000000010100 X"
b0001011 \"
b0001010 ]"
1d"
1q"
b0001011 t"
b011000000000010100 u"
b0001010 v"
b0001010 w"
1x"
b0001011 {"
b0001010 |"
b0001010 }"
1!#
b0001010 "#
b011000000000010100 ##
1$#
b011000000000010100 '#
1*#
bUU ,#
b01 -#
1.#
#1100000000
0"
0)
0;
0a
0t
0z
0#"
0)"
0/"
05"
0;"
0A"
0K"
0d"
0q"
0x"
0!#
0$#
0*#
0.#
#1150000000
1"
b0001011 (
1)
b0001011 +
1;
1a
1t
1z
1#"
1)"
1/"
15"
1;"
1A"
1K"
b0001011 R"
bUU S"
b000000000000001010 X"
b0001100 \"
b0001011 ]"
1d"
1q"
b0001100 t"
b000000000000001010 u"
b0001011 v"
b0001011 w"
1x"
b0001100 {"
b0001011 |"
b0001011 }"
1!#
b0001011 "#
b000000000000001010 ##
1$#
b000000000000001010 '#
1*#
bUU ,#
b10 -#
1.#
#1200000000
0"
0)
0;
0a
0t
0z
0#"
0)"
0/"
05"
0;"
0A"
0K"
0d"
0q"
0x"
0!#
0$#
0*#
0.#
#1250000000
1"
b0001100 (
1)
b0001100 +
1;
1a
1t
1z
1#"
1)"
1/"
15"
1;"
1A"
1K"
b0001100 R"
bUU S"
b000000000000000011 X"
b0001101 \"
b0001100 ]"
1d"
1q"
b0001101 t"
b000000000000000011 u"
b0001100 v"
b0001100 w"
1x"
b0001101 {"
b0001100 |"
b0001100 }"
1!#
b0001100 "#
b000000000000000011 ##
1$#
b000000000000000011 '#
1*#
bUU ,#
b00 -#
1.#
#1300000000
0"
0)
0;
0a
0t
0z
0#"
0)"
0/"
05"
0;"
0A"
0K"
0d"
0q"
0x"
0!#
0$#
0*#
0.#
#1350000000
1"
b0001101 (
1)
b0001101 +
1;
1a
1t
1z
1#"
1)"
1/"
15"
1;"
1A"
1K"
b0001101 R"
bUU S"
b000000000000000000 X"
b0001110 \"
b0001101 ]"
1d"
1q"
b0001110 t"
b000000000000000000 u"
b0001101 v"
b0001101 w"
1x"
b0001110 {"
b0001101 |"
b0001101 }"
1!#
b0001101 "#
b000000000000000000 ##
1$#
b000000000000000000 '#
1*#
bUU ,#
b01 -#
1.#
#1400000000
0"
0)
0;
0a
0t
0z
0#"
0)"
0/"
05"
0;"
0A"
0K"
0d"
0q"
0x"
0!#
0$#
0*#
0.#
#1450000000
1"
b0001110 (
1)
b0001110 +
1;
1a
1t
1z
1#"
1)"
1/"
15"
1;"
1A"
1K"
b0001110 R"
bUU S"
b000100000000001101 X"
b0001111 \"
b0001110 ]"
1d"
1q"
b0001111 t"
b000100000000001101 u"
b0001110 v"
b0001110 w"
1x"
b0001111 {"
b0001110 |"
b0001110 }"
1!#
b0001110 "#
b000100000000001101 ##
1$#
b000100000000001101 '#
1*#
bUU ,#
b10 -#
1.#
#1500000000
0"
0)
0;
0a
0t
0z
0#"
0)"
0/"
05"
0;"
0A"
0K"
0d"
0q"
0x"
0!#
0$#
0*#
0.#
#1550000000
1"
b0001111 (
1)
b0001111 +
1;
1a
1t
1z
1#"
1)"
1/"
15"
1;"
1A"
1K"
b0001111 R"
bUU S"
b010000000000000011 X"
b0010000 \"
b0001111 ]"
1d"
1q"
b0010000 t"
b010000000000000011 u"
b0001111 v"
b0001111 w"
1x"
b0010000 {"
b0001111 |"
b0001111 }"
1!#
b0001111 "#
b010000000000000011 ##
1$#
b010000000000000011 '#
1*#
bUU ,#
b00 -#
1.#
#1600000000
0"
0)
0;
0a
0t
0z
0#"
0)"
0/"
05"
0;"
0A"
0K"
0d"
0q"
0x"
0!#
0$#
0*#
0.#
#1650000000
1"
b0010000 (
1)
b0010000 +
1;
1a
1t
1z
1#"
1)"
1/"
15"
1;"
1A"
1K"
b0010000 R"
bUU S"
b001100000000000101 X"
b0010001 \"
b0010000 ]"
1d"
1q"
b0010001 t"
b001100000000000101 u"
b0010000 v"
b0010000 w"
1x"
b0010001 {"
b0010000 |"
b0010000 }"
1!#
b0010000 "#
b001100000000000101 ##
1$#
b001100000000000101 '#
1*#
bUU ,#
b01 -#
1.#
#1700000000
0"
0)
0;
0a
0t
0z
0#"
0)"
0/"
05"
0;"
0A"
0K"
0d"
0q"
0x"
0!#
0$#
0*#
0.#
#1750000000
1"
b0010001 (
1)
b0010001 +
1;
1a
1t
1z
1#"
1)"
1/"
15"
1;"
1A"
1K"
b0010001 R"
bUU S"
b000000000000001010 X"
b0010010 \"
b0010001 ]"
1d"
1q"
b0010010 t"
b000000000000001010 u"
b0010001 v"
b0010001 w"
1x"
b0010010 {"
b0010001 |"
b0010001 }"
1!#
b0010001 "#
b000000000000001010 ##
1$#
b000000000000001010 '#
1*#
bUU ,#
b10 -#
1.#
#1800000000
0"
0)
0;
0a
0t
0z
0#"
0)"
0/"
05"
0;"
0A"
0K"
0d"
0q"
0x"
0!#
0$#
0*#
0.#
#1850000000
1"
b0010010 (
1)
b0010010 +
1;
1a
1t
1z
1#"
1)"
1/"
15"
1;"
1A"
1K"
b0010010 R"
bUU S"
b000000000000000011 X"
b0010011 \"
b0010010 ]"
1d"
1q"
b0010011 t"
b000000000000000011 u"
b0010010 v"
b0010010 w"
1x"
b0010011 {"
b0010010 |"
b0010010 }"
1!#
b0010010 "#
b000000000000000011 ##
1$#
b000000000000000011 '#
1*#
bUU ,#
b00 -#
1.#
#1900000000
0"
0)
0;
0a
0t
0z
0#"
0)"
0/"
05"
0;"
0A"
0K"
0d"
0q"
0x"
0!#
0$#
0*#
0.#
#1950000000
1"
b0010011 (
1)
b0010011 +
1;
1a
1t
1z
1#"
1)"
1/"
15"
1;"
1A"
1K"
b0010011 R"
bUU S"
b100000000000000000 X"
b0010100 \"
b0010011 ]"
1d"
1q"
b0010100 t"
b100000000000000000 u"
b0010011 v"
b0010011 w"
1x"
b0010100 {"
b0010011 |"
b0010011 }"
1!#
b0010011 "#
b100000000000000000 ##
1$#
b100000000000000000 '#
1*#
bUU ,#
b01 -#
1.#
#2000000000
0"
0)
0;
0a
0t
0z
0#"
0)"
0/"
05"
0;"
0A"
0K"
0d"
0q"
0x"
0!#
0$#
0*#
0.#
#2050000000
1"
b0010100 (
1)
b0010100 +
1;
1a
1t
1z
1#"
1)"
1/"
15"
1;"
1A"
1K"
b0010100 R"
bUU S"
b000100000000001101 X"
b0010101 \"
b0010100 ]"
1d"
1q"
b0010101 t"
b000100000000001101 u"
b0010100 v"
b0010100 w"
1x"
b0010101 {"
b0010100 |"
b0010100 }"
1!#
b0010100 "#
b000100000000001101 ##
1$#
b000100000000001101 '#
1*#
bUU ,#
b10 -#
1.#
#2100000000
0"
0)
0;
0a
0t
0z
0#"
0)"
0/"
05"
0;"
0A"
0K"
0d"
0q"
0x"
0!#
0$#
0*#
0.#
#2150000000
1"
b0010101 (
1)
b0010101 +
1;
1a
1t
1z
1#"
1)"
1/"
15"
1;"
1A"
1K"
b0010101 R"
bUU S"
b110100000000000101 X"
b0010110 \"
b0010101 ]"
1d"
1q"
b0010110 t"
b110100000000000101 u"
b0010101 v"
b0010101 w"
1x"
b0010110 {"
b0010101 |"
b0010101 }"
1!#
b0010101 "#
b110100000000000101 ##
1$#
b110100000000000101 '#
1*#
bUU ,#
b00 -#
1.#
#2200000000
0"
0)
0;
0a
0t
0z
0#"
0)"
0/"
05"
0;"
0A"
0K"
0d"
0q"
0x"
0!#
0$#
0*#
0.#
#2250000000
1"
b0010110 (
1)
b0010110 +
1;
1a
1t
1z
1#"
1)"
1/"
15"
1;"
1A"
1K"
b0010110 R"
bUU S"
b010100000000000011 X"
b0010111 \"
b0010110 ]"
1d"
1q"
b0010111 t"
b010100000000000011 u"
b0010110 v"
b0010110 w"
1x"
b0010111 {"
b0010110 |"
b0010110 }"
1!#
b0010110 "#
b010100000000000011 ##
1$#
b010100000000000011 '#
1*#
bUU ,#
b01 -#
1.#
#2300000000
0"
0)
0;
0a
0t
0z
0#"
0)"
0/"
05"
0;"
0A"
0K"
0d"
0q"
0x"
0!#
0$#
0*#
0.#
#2350000000
1"
b0010111 (
1)
b0010111 +
1;
1a
1t
1z
1#"
1)"
1/"
15"
1;"
1A"
1K"
b0010111 R"
bUU S"
b011100000000000110 X"
b0011000 \"
b0010111 ]"
1d"
1q"
b0011000 t"
b011100000000000110 u"
b0010111 v"
b0010111 w"
1x"
b0011000 {"
b0010111 |"
b0010111 }"
1!#
b0010111 "#
b011100000000000110 ##
1$#
b011100000000000110 '#
1*#
bUU ,#
b10 -#
1.#
#2400000000
0"
0)
0;
0a
0t
0z
0#"
0)"
0/"
05"
0;"
0A"
0K"
0d"
0q"
0x"
0!#
0$#
0*#
0.#
#2450000000
1"
b0011000 (
1)
b0011000 +
1;
1a
1t
1z
1#"
1)"
1/"
15"
1;"
1A"
1K"
b0011000 R"
bUU S"
b001100000000000101 X"
b0011001 \"
b0011000 ]"
1d"
1q"
b0011001 t"
b001100000000000101 u"
b0011000 v"
b0011000 w"
1x"
b0011001 {"
b0011000 |"
b0011000 }"
1!#
b0011000 "#
b001100000000000101 ##
1$#
b001100000000000101 '#
1*#
bUU ,#
b00 -#
1.#
#2500000000
0"
0)
0;
0a
0t
0z
0#"
0)"
0/"
05"
0;"
0A"
0K"
0d"
0q"
0x"
0!#
0$#
0*#
0.#
#2550000000
1"
b0011001 (
1)
b0011001 +
1;
1a
1t
1z
1#"
1)"
1/"
15"
1;"
1A"
1K"
b0011001 R"
bUU S"
b010000000000000011 X"
b0011010 \"
b0011001 ]"
1d"
1q"
b0011010 t"
b010000000000000011 u"
b0011001 v"
b0011001 w"
1x"
b0011010 {"
b0011001 |"
b0011001 }"
1!#
b0011001 "#
b010000000000000011 ##
1$#
b010000000000000011 '#
1*#
bUU ,#
b01 -#
1.#
#2600000000
0"
0)
0;
0a
0t
0z
0#"
0)"
0/"
05"
0;"
0A"
0K"
0d"
0q"
0x"
0!#
0$#
0*#
0.#
#2650000000
1"
b0011010 (
1)
b0011010 +
1;
1a
1t
1z
1#"
1)"
1/"
15"
1;"
1A"
1K"
b0011010 R"
bUU S"
b001100000000000101 X"
b0011011 \"
b0011010 ]"
1d"
1q"
b0011011 t"
b001100000000000101 u"
b0011010 v"
b0011010 w"
1x"
b0011011 {"
b0011010 |"
b0011010 }"
1!#
b0011010 "#
b001100000000000101 ##
1$#
b001100000000000101 '#
1*#
bUU ,#
b10 -#
1.#
#2700000000
0"
0)
0;
0a
0t
0z
0#"
0)"
0/"
05"
0;"
0A"
0K"
0d"
0q"
0x"
0!#
0$#
0*#
0.#
#2750000000
1"
b0011011 (
1)
b0011011 +
1;
1a
1t
1z
1#"
1)"
1/"
15"
1;"
1A"
1K"
b0011011 R"
bUU S"
b010000000000000011 X"
b0011100 \"
b0011011 ]"
1d"
1q"
b0011100 t"
b010000000000000011 u"
b0011011 v"
b0011011 w"
1x"
b0011100 {"
b0011011 |"
b0011011 }"
1!#
b0011011 "#
b010000000000000011 ##
1$#
b010000000000000011 '#
1*#
bUU ,#
b00 -#
1.#
#2800000000
0"
0)
0;
0a
0t
0z
0#"
0)"
0/"
05"
0;"
0A"
0K"
0d"
0q"
0x"
0!#
0$#
0*#
0.#
